<?xml version="1.0" encoding="UTF-8" standalone="no"?>
<svg
   xmlns:dc="http://purl.org/dc/elements/1.1/"
   xmlns:cc="http://creativecommons.org/ns#"
   xmlns:rdf="http://www.w3.org/1999/02/22-rdf-syntax-ns#"
   xmlns:svg="http://www.w3.org/2000/svg"
   xmlns="http://www.w3.org/2000/svg"
   xmlns:xlink="http://www.w3.org/1999/xlink"
   xmlns:sodipodi="http://sodipodi.sourceforge.net/DTD/sodipodi-0.dtd"
   xmlns:inkscape="http://www.inkscape.org/namespaces/inkscape"
   id="7d20109a-a0f0-4dfa-976a-751f0ae87d51"
   data-name="Layer 1"
   width="750.34045"
   height="584.9231"
   viewBox="0 0 750.34046 584.92309"
   version="1.1"
   sodipodi:docname="tempete cerveau.svg"
   inkscape:version="0.92.4 (5da689c313, 2019-01-14)">
  <metadata
     id="metadata833">
    <rdf:RDF>
      <cc:Work
         rdf:about="">
        <dc:format>image/svg+xml</dc:format>
        <dc:type
           rdf:resource="http://purl.org/dc/dcmitype/StillImage" />
        <dc:title>hang out</dc:title>
      </cc:Work>
    </rdf:RDF>
  </metadata>
  <sodipodi:namedview
     pagecolor="#ffffff"
     bordercolor="#666666"
     borderopacity="1"
     objecttolerance="10"
     gridtolerance="10"
     guidetolerance="10"
     inkscape:pageopacity="0"
     inkscape:pageshadow="2"
     inkscape:window-width="1858"
     inkscape:window-height="1016"
     id="namedview831"
     showgrid="false"
     inkscape:zoom="1.1786151"
     inkscape:cx="349.50479"
     inkscape:cy="329.63576"
     inkscape:window-x="62"
     inkscape:window-y="27"
     inkscape:window-maximized="1"
     inkscape:current-layer="7d20109a-a0f0-4dfa-976a-751f0ae87d51" />
  <defs
     id="defs10">
    <linearGradient
       id="9460e000-b540-487b-970a-49d5722f90c2"
       x1="652.58002"
       y1="850.46997"
       x2="652.58002"
       y2="265.48999"
       gradientUnits="userSpaceOnUse">
      <stop
         offset="0"
         stop-color="gray"
         stop-opacity="0.25"
         id="stop2" />
      <stop
         offset="0.54"
         stop-color="gray"
         stop-opacity="0.12"
         id="stop4" />
      <stop
         offset="1"
         stop-color="gray"
         stop-opacity="0.1"
         id="stop6" />
    </linearGradient>
    <linearGradient
       id="d3efc67a-a667-44d9-839e-ddeb4c4ea6af"
       x1="1069.38"
       y1="751.22998"
       x2="1069.38"
       y2="686.58002"
       xlink:href="#9460e000-b540-487b-970a-49d5722f90c2" />
    <linearGradient
       inkscape:collect="always"
       xlink:href="#9460e000-b540-487b-970a-49d5722f90c2"
       id="linearGradient835"
       gradientUnits="userSpaceOnUse"
       x1="652.58002"
       y1="850.46997"
       x2="652.58002"
       y2="265.48999"
       gradientTransform="translate(-277.35143,-265.4869)" />
  </defs>
  <title
     id="title12">hang out</title>
  <path
     d="m 554.43857,348.8631 c 0,0 14.69,-8.7 34.82,-4.35 20.13,4.35 50.95,2 53.76,1.57 z"
     id="path76"
     inkscape:connector-curvature="0"
     style="opacity:0.1" />
  <path
     d="m 618.81857,112.2431 c 0,0 4.9,77.24 -3.81,92.47 z"
     id="path78"
     inkscape:connector-curvature="0"
     style="opacity:0.1" />
  <path
     d="m 636.88857,204.7131 c 0,0 -6.27,72.35 -10.62,86.49 -4.35,14.14 10.62,-86.49 10.62,-86.49 z"
     id="path80"
     inkscape:connector-curvature="0"
     style="opacity:0.1" />
  <path
     d="m 677.17857,116.5131 c -2.2,22.43 -3.39,37.12 -2,55.07 a 211.23,211.23 0 0 1 -0.6,41.88 z"
     id="path86"
     inkscape:connector-curvature="0"
     style="opacity:0.1" />
  <path
     d="m 737.94857,239.6831 c -4.08,-3.46 -16.24,-24.72 -19.68,-30.8 l -0.9,-1.62 v 0 c 1.26,-4.73 -6.64,-11.61 -8.94,-13.5 -4.85,-5.7 -11.8,-12.8 -17.53,-14.5 -7.34,-2.17 -12.47,0.27 -18,-0.68 a 14.06,14.06 0 0 1 -3.89,-1.25 19.42,19.42 0 0 1 -2.33,-1.38 28.48,28.48 0 0 1 -5.28,-5.05 11.48,11.48 0 0 0 3,-0.79 q 8.55,-3.19 16.8,-7.1 c 1.19,-0.57 2.48,-1.25 2.95,-2.48 0.2,-0.52 0.23,-1.1 0.47,-1.6 0.52,-1.12 1.86,-1.55 3,-1.91 4.22,-1.28 8.8,-3.8 9.5,-8.15 a 11,11 0 0 0 0.1,-1.72 7.32,7.32 0 0 1 -0.8,1.27 c 0.15,-1.47 -0.08,-3 0.14,-4.43 a 8.88,8.88 0 0 1 1.46,-3.52 11.75,11.75 0 0 0 -0.08,1.45 c 1.64,-3.55 5.59,-6.12 6.89,-9.95 a 11.11,11.11 0 0 0 0.52,-3.15 11,11 0 0 1 -0.9,1.69 c 0.73,-4.33 -1.17,-9.23 1.06,-13 0.15,-0.25 0.32,-0.5 0.49,-0.73 a 12,12 0 0 0 -0.13,1.48 c 0.11,-0.25 0.23,-0.5 0.37,-0.75 1.05,-1.78 2.91,-3.09 3.45,-5.09 a 5.82,5.82 0 0 0 0.08,-2.24 10,10 0 0 1 -0.68,0.93 12.53,12.53 0 0 0 -0.41,-2.77 c -1.59,-6.86 -3.91,-14.650002 -10.34,-17.500002 -1.95,-0.87 -4.2,-1.23 -5.76,-2.69 -3.57,-3.32 -1.64,-10.42 -5.75,-13 -1.81,-1.15 -4.59,-1.27 -5.28,-3.3 -0.39,-1.15 0.14,-2.47 -0.29,-3.62 -0.91,-2.45 -4.48,-1.57 -7.09,-1.48 -3.62,0.14 -7.36,-3.05 -6.83,-6.63 a 19,19 0 0 0 -15.76,-0.74 c -2.64,1.07 -5.23,2.78 -8.06,2.52 -1.37,-0.13 -2.64,-0.71 -4,-0.95 -5.6,-1 -10.39,3.81 -15.72,5.8 -5.55,2.07 -12.37,1.25 -16.79,5.21 -3.88,3.49 -4.59,9.67 -8.7,12.88 -2.19,1.7 -5,2.31 -7.33,3.87 -2.33,1.56 -3.89,4.92 -2.13,7.07 2.22,2.72 7.92,1.26 9,4.600002 0.87,2.69 -2.47,4.69 -3.75,7.2 a 5.59,5.59 0 0 0 3.85,7.7 v 0 0.08 a 36.22,36.22 0 0 0 17.26,43.56 c 0.5,0.9 1,1.91 1.56,3 3.11,6.18 6.72,14.84 7.79,23.28 -3.74,-1.23 -11.61,5.93 -11.61,5.93 a 85.92,85.92 0 0 1 -12.13,2.21 c -8.41,1.1 -7.73,4.39 -7.72,4.42 l -0.53,0.48 c -4.35,3.81 -33.92,30.27 -38.66,31.27 l 0.25,1 -1.22,0.9 -14.65,10.85 v 0 c 0,0 -11.22,0.74 -22.25,2 -11.03,1.26 -26.66,4.61 -15.26,17.87 0.32,0.38 0.64,0.72 1,1 l -44.22,-2.62 a 1.94,1.94 0 0 0 0.49,-1.17 c 0,-1 -1.14,-2 -3.1,-2.75 l -0.07,-0.31 c 5.57,-0.16 12.49,-0.41 17.11,-0.83 1.2,-0.12 2.23,-0.24 3,-0.37 6.9,-1.11 -0.55,-6.36 2.76,-10.5 3.31,-4.14 0,-19.63 0.27,-22.94 0.27,-3.31 -2.2,-16.58 -4.41,-19.35 -2.21,-2.77 -2.48,-14.65 -2.48,-14.65 0,0 -5.24,-4.7 -8.27,-20.73 -3.03,-16.03 -15.17,-24.32 -19,-25.15 -3.83,-0.83 -9.65,-4.14 -9.65,-5 0,-0.86 -6.62,-1.11 -9.38,-2.21 -2.76,-1.1 -4.14,-2.49 -6.34,-2.77 v 0 a 12.31,12.31 0 0 0 1.95,-2.92 6.73,6.73 0 0 1 2.39,-2.67 3.56,3.56 0 0 1 0.61,-0.25 2.37,2.37 0 0 1 0.65,-0.09 1.88,1.88 0 0 1 0.66,0.09 c 0.82,0.23 1.66,0.92 2.39,0.51 a 0.87,0.87 0 0 0 0.27,-0.23 2.23,2.23 0 0 0 0.43,-1 v 0 c 0.09,-0.41 0.16,-0.83 0.21,-1.25 0,0 0,-0.06 0,-0.09 0.05,-0.43 0.08,-0.86 0.1,-1.29 v 0 c 0.15,-3.12 -0.29,-6.35 1.16,-9.06 l 0.09,-0.13 v 0 c 1.46,-2.6 4.33,-4 6.66,-5.91 q 0.72,-0.58 1.38,-1.23 c 0.17,-0.16 0.32,-0.34 0.49,-0.52 0.17,-0.18 0.51,-0.53 0.75,-0.81 0.24,-0.28 0.38,-0.49 0.57,-0.73 0.19,-0.24 0.36,-0.47 0.52,-0.71 0.16,-0.24 0.4,-0.59 0.59,-0.9 0.19,-0.31 0.25,-0.4 0.36,-0.6 0.11,-0.2 0.39,-0.7 0.57,-1.07 0.08,-0.16 0.16,-0.33 0.23,-0.49 0.19,-0.4 0.36,-0.810002 0.52,-1.220002 0.05,-0.13 0.09,-0.26 0.13,-0.38 0.17,-0.46 0.32,-0.91 0.45,-1.38 0,-0.08 0,-0.15 0,-0.23 a 18.59,18.59 0 0 0 0.57,-3 19.68,19.68 0 0 0 -4.54,-14.41 c -2.55,-3 -6.21,-5.62 -6.41,-9.53 a 14.94,14.94 0 0 1 1.2,-5.36 v 0 a 13.36,13.36 0 0 0 0.58,-2.3 v 0 a 6.35,6.35 0 0 0 0.09,-1.07 c 0,-2.91 -1.84,-5.5 -4,-7.49 a 25.68,25.68 0 0 0 -23.11,-6.1 c -2.13,0.52 -4.28,1.32 -6.46,1.05 -2.54,-0.32 -4.64,-2 -6.92,-3.17 -7.46,-3.78 -17.57,-1 -22.09,6 -2.61,4.08 -3.63,9.39 -7.53,12.25 -2.3,1.69 -5.48,2.43 -7.13,4.62 v 0 a 4.86,4.86 0 0 0 -0.52,0.81 6.12,6.12 0 0 0 -0.59,2.74 18.65,18.65 0 0 0 0.24,2.88 13.21,13.21 0 0 0 4.19,8.05 v 0 l 0.57,0.6 0.13,0.14 c 0.4,0.44 0.78,0.88 1.12,1.33 l 0.06,0.09 0.31,0.44 c -0.14,0.17 -0.29,0.33 -0.42,0.5 a 33.2,33.2 0 0 0 4.9,46.380002 c 0,0.35 0,0.7 0,1.06 -0.09,1.85 -0.22,3.81 -0.38,5.81 a 4.75,4.75 0 0 0 -3.77,-1.31 4,4 0 0 0 -1.88,0.18 4.82,4.82 0 0 1 -1.08,0.22 c -1.42,-0.12 -2.74,-0.63 -4.13,-0.48 a 4.63,4.63 0 0 0 -3.89,1.36 c -2.74,2.52 -12.27,5.79 -16.89,6.06 a 2.88,2.88 0 0 1 -1,-0.25 2.45,2.45 0 0 0 -1.52,-0.14 c -2.91,-0.65 -11,5 -12.82,8.43 -1.93,3.59 -8.27,13.26 -8.27,13.26 0,0 -5.52,6.64 -4.69,10.23 0.83,3.59 -1.93,7.74 -5.24,9.4 -3.31,1.66 -9.93,18.24 -9.93,18.24 0,0 -7.17,15.2 -14.62,19.07 -2.92,1.52 -3.84,5 -3.89,8.75 -1.72,0.09 -3,0.09 -3,0.09 0,0 -23.17,5.9 -30.52,1.47 -7.35,-4.43 -33.1,-5.52 -33.1,-5.52 l -26.28,-28.09 -1.06,-1.14 c 4.64,-3.95 -3.18,-6.85 -3.18,-9.75 0,-2.9 -2.94,-4.06 -2.94,-4.06 0,0 -0.13,0.17 -0.34,0.4 a 5.13,5.13 0 0 0 -0.76,-0.4 7.27,7.27 0 0 1 -2.17,1.85 c -0.54,-0.35 -0.89,-1.39 -0.77,-3.69 0.22,-4.49 -2.69,-9.24 -5,-12.27 3.31,-10.76 9.5,-22.86 14.24,-31.3 0.27,-0.5 0.55,-1 0.82,-1.45 a 32.35,32.35 0 0 0 11,-50.910002 c -0.34,-0.39 -0.69,-0.76 -1.05,-1.13 a 6.89,6.89 0 0 1 0.81,-0.23 6,6 0 0 1 1.05,-0.1 c 2.37,0.06 5.1,1.15 7.31,1.05 a 4.33,4.33 0 0 0 2.05,-0.4 c 2.42,-1.2 1.85,-4.42 0.43,-6.05 -1.75,-2 -4.5,-3.33 -5.77,-5.57 a 17.81,17.81 0 0 1 -1.31,-4.28 15.28,15.28 0 0 0 -9.32,-9.64 19.66,19.66 0 0 0 -14.66,0.32 c -2.17,1 -4.08,2.31 -6.33,3.12 -4.65,1.68 -10,0.76 -14.81,-0.58 -2.81,-0.78 -5.61,-1.7 -8.46,-2.33 a 42.35,42.35 0 0 0 -3.89,-12.31 c -0.15,-0.31 -0.33,-0.6 -0.49,-0.91 4.8,-1.66 11.06,-1.36 13.56,-5.71 a 9.56,9.56 0 0 0 4.55,-0.59 c 1.38,-0.69 2.42,-2.35 1.86,-3.8 a 3,3 0 0 0 -0.61,-0.92 v 0 a 11.47,11.47 0 0 0 -2,-1.51 11.82,11.82 0 0 1 -5.08,-9.1 c 0,0.08 0,0.16 0.07,0.25 a 10.77,10.77 0 0 1 0,-1.27 c 0.08,-1.91 0.63,-3.79 0.51,-5.7 a 7.28,7.28 0 0 0 -0.54,-2.31 c 0,0.05 0,0.1 0,0.15 a 8.42,8.42 0 0 0 -7.91,-5.39 c -1.25,0.06 -2.48,0.4 -3.73,0.44 -6,0.17 -10.95,-6.5599998 -16.76,-5.1999998 -1.24,0.29 -2.42,1 -3.69,0.95 -2.93,0 -4.74,-3.36 -7.54,-4.24 -2.22,-0.71 -4.64,0.27 -7,0 -2.360005,-0.27 -4.120005,-1.58 -6.080005,-2.65 -4.19,-2.29000001 -9.8,-3.3 -13.47,-0.24 a 12.21,12.21 0 0 1 -2.62,2.1 7.6,7.6 0 0 1 -3.8,0.22 35.23,35.23 0 0 0 -11.350003,0.77 4.28,4.28 0 0 0 -2.6,1.35 7.6,7.6 0 0 0 -0.82,2.65 c -1.12,4.3499998 -6.48,5.8199998 -10.95,6.1899998 a 6.3,6.3 0 0 0 -3.3,0.89 c -1.61,1.23 -1.56,3.7 -0.85,5.6 0.71,1.9 1.92,3.63 2.18,5.64 0.65,5 -4.78,8.87 -5.68,13.88 -1.26,6.92 6.41,13.72 3.8,20.26 -1.15,2.9 -4.23,5.14 -4.09,8.26 0.14,3.12 3.16,4.92 5,7.3 1.84,2.38 2.51,5.17 3.21,8 1.08,4.33 1.28,12.5 5.92,14.58 v 0 a 4.69,4.69 0 0 0 0.6,0.24 6.82,6.82 0 0 0 0.78,0.190002 c -0.22,0.32 -0.43,0.64 -0.65,0.95 -5.42,7.74 -11.49,15.27 -17.17,19.91 -0.2,0.17 -0.41,0.33 -0.62,0.49 a 4.46,4.46 0 0 0 -2.45,-1.08 c -3.31,-0.37 -11.77,5.53 -11.77,8.47 0,2.94 -7.76,7.74 -16.6199999,16.21 -8.86,8.47 -8.82,49 -5.88,56.75 1.16,3.07 2.79,11.06 4.33,19.58 a 10.84,10.84 0 0 0 -4,5.85 c -3.31,14 1.47,25.05 5.51,26.16 4.0399999,1.11 3.0399999,-4.81 3.0399999,-4.81 -3.2299999,-7 -3.8399999,-12.41 -2.6299999,-16.52 1.48,9.07 2.6299999,16.52 2.6299999,16.52 0,0 10.67,33.9 14.71,44.22 4.04,10.32 18.39,74.81 18.39,74.81 0,0 1.57,2 4.38,4.85 l 3.34,18.36 5.51,11.06 h 0.41 l -0.83,7.88 c 0,0 0.73,33.17 -1.11,38.14 -1.84,4.97 -18.2,95.08 -18.2,95.08 0,0 -5.15,31.69 -4.78,39.43 l 11.95,2.58 c 0,0 -2.39,-6.82 1.11,-19.53 3.5,-12.71 10.29,-36.48 10.29,-36.48 l 7,-31.69 0.53,22.66 c 0,0 -6.25,28.19 -5,29.66 1.25,1.47 10.84,2 10.84,2 0,0 0,-15.11 2,-23.4 1.760003,-7.23 21.280003,-82.13 26.240003,-101.18 a 47.05,47.05 0 0 1 21.560005,-3.48 c 24.77,1.38 38.63,10.44 46.37,19.73 -17.75,9.38 -32.7,17.12 -32.7,17.12 l 0.18,1 v 0 l -0.16,0.09 -0.38,0.23 -0.19,0.11 -0.36,0.22 -0.27,0.15 -0.41,0.25 -0.26,0.15 -0.5,0.29 -0.23,0.13 -1.64,1 -0.18,0.1 -0.71,0.41 -0.21,0.12 -0.75,0.43 -0.2,0.12 -0.85,0.49 -0.11,0.06 -1,0.56 v 0 l -1,0.58 -0.1,0.06 -0.91,0.51 -0.25,0.14 -0.74,0.42 -0.35,0.2 -0.68,0.37 -0.34,0.19 -0.75,0.41 -0.26,0.15 -1,0.55 v 0 l -0.94,0.51 -0.26,0.13 -0.71,0.38 -0.3,0.16 -0.62,0.32 -0.33,0.17 -0.61,0.32 -0.27,0.14 -0.72,0.36 -0.12,0.06 -0.8,0.4 -0.18,0.08 -0.56,0.27 -0.24,0.11 -0.45,0.2 -0.24,0.11 -0.39,0.16 -0.22,0.09 -0.36,0.14 -0.17,0.07 -0.45,0.15 c -4.73,1.43 -8.11,13.42 -3,21.13 5.11,7.71 4.05,21.13 1.35,26.27 -2.7,5.14 0.67,14.28 1.35,16.57 0.51,1.74 6.71,3.63 16.49,3.19 a 69.52,69.52 0 0 0 15.72,-1.19 c 15.55,-2.86 9.8,-9.14 8.11,-13.71 -1.69,-4.57 -2,-17.71 0.34,-23.7 q 0.24,-0.63 0.42,-1.29 c 3.66,-4.07 9.5,-10.74 14.17,-16.82 2.15,-2.8 7.58,-5.29 14.18,-7.41 5.28,21.65 15.8,64.51 18.12,71.35 3.12,9.21 4.78,31.88 4.78,31.88 l 12.13,-1.11 -4,-60.25 -4.35,-48 c 5.74,-1 10.18,-1.63 11.62,-1.83 5.92,22.78 11.55,44.48 12.46,48.21 2,8.29 2,23.4 2,23.4 0,0 9.56,-0.55 10.85,-2 1.29,-1.45 -5,-29.67 -5,-29.67 l 1.17,-49.86 c 13.73,-6.43 30.43,-14.19 37.81,-17.4 6.94,-3 18.47,-10.13 28.11,-16.4 l 17,138.75 9.93,0.83 5.31,-1.21 6.82,-1.55 15.6,-125.07 c 0.62,0.49 1.19,0.95 1.69,1.37 -0.34,3.13 -0.65,8.45 0.64,12.32 1.93,5.8 1.65,18.51 0.27,22.94 -1.38,4.43 -6.06,10.5 6.62,13.26 12.68,2.76 21.24,0.28 21.79,-1.93 0.55,-2.21 3.31,-11.06 1.1,-16 -2.21,-4.94 -3,-18 1.1,-25.43 4.1,-7.43 1.38,-19.07 -2.48,-20.45 -2.56,-0.92 -6.32,-2.56 -8.58,-3.57 l -0.72,-0.91 a 18.73,18.73 0 0 1 6,-5.2 c 6.62,-3.31 5.24,-10.77 5.24,-10.77 0,0 6.9,0 11.86,-8.3 3.48,-5.81 7.49,-11.61 9.59,-15.81 0.42,2.67 0.9,6 1.17,8.81 0.55,5.9 7.35,63.2 10.48,68 3.13,4.8 0.55,22.85 0.55,22.85 h 10.11 l -0.73,-27.64 c 0,0 -11.4,-81.25 -1.84,-89.55 1.67,-1.45 3.3,-2.94 4.85,-4.4 l 18.86,137.91 c -0.05,1 -0.09,1.72 -0.12,2.26 -0.03,0.54 -0.06,1 -0.06,1 0,0 -8.09,4.06 -2.2,8.1 a 15.06,15.06 0 0 0 4.16,1.74 l 0.41,3 a 42.91,42.91 0 0 1 -6.41,0 c -1.29,-0.55 -1.29,17.13 -1.29,17.13 0,0 -7.17,14.38 -8.09,17.88 -0.92,3.5 -8.09,12.16 -8.09,12.16 0,0 -10.3,7.55 4.78,10.5 15.08,2.95 31.62,-0.92 31.62,-0.92 0,0 11,-19.16 12,-18.06 1,1.1 0,10.14 0,10.14 l 6.44,-1.66 c 0,0 -1.11,-12 1.47,-18.43 2,-5.12 -2.41,-21.29 -4.33,-27.72 l 1.2,0.09 c 0,0 1.1,-2.21 2.21,-8.85 q 0,-0.31 0.09,-0.6 a 85.57,85.57 0 0 1 3.59,-14.14 c 1.83,-5.9 0,-5.16 0,-8.85 a 134.22,134.22 0 0 1 2,-18.93 c 0,-0.19 0.07,-0.37 0.11,-0.56 a 8.82,8.82 0 0 0 2.68,1.19 c 1.1,3.06 2.26,6.57 3,9.5 -2,0.62 -3.35,1.34 -3.57,2.17 -1.11,4.06 0.36,12.71 0.36,12.71 0,0 1.65,19.54 -1.47,22.49 -3.12,2.95 -9.56,8.29 -5.33,13.82 a 7,7 0 0 0 1.47,1.37 c 3,2.18 8.76,3.75 14.56,4 l -2.42,36.1 12.02,1.12 c 0,0 1.65,-22.67 4.78,-31.88 0.69,-2 2.12,-7.32 3.92,-14.28 4.55,-6.83 7.11,-11.7 7.11,-11.7 l 3.13,12.9 10.84,-2.77 c 0,0 -5.88,-11.42 -5.15,-15.47 0.73,-4.05 -3.12,-9.76 -6.24,-14.37 -0.39,-0.57 -0.81,-1.3 -1.26,-2.13 4.65,-18.87 8.79,-36 8.79,-36 0,0 2.94,-38.3 56.08,-41.3 a 47,47 0 0 1 21.55,3.48 c 5,19 24.49,94 26.25,101.18 2,8.29 2,23.4 2,23.4 0,0 9.56,-0.55 10.85,-2 1.29,-1.45 -5,-29.66 -5,-29.66 l 0.53,-22.66 7,31.69 c 0,0 6.8,23.76 10.29,36.48 3.49,12.72 1.1,19.53 1.1,19.53 l 11.95,-2.58 c 0.37,-7.74 -4.78,-39.43 -4.78,-39.43 0,0 -16.36,-90.1 -18.2,-95.08 -1.84,-4.98 -1.1,-38.14 -1.1,-38.14 l -0.81,-7.72 c 13,-9.15 20.3,-58.06 20.3,-58.06 l 13.56,-75.82 a 91.85,91.85 0 0 0 5.4,-12.16 v -0.07 l 1.62,1.82 7.88,19.35 c 15.62,21.93 31.25,21.19 31.25,21.19 a 1.11,1.11 0 0 0 0.07,-0.16 10.35,10.35 0 0 0 8,-2.1 l 0.16,-0.13 c 5.67,-4.43 -6.09,-36.12 -10.88,-40.18 z m -275.91,45.83 c -0.9,-3.62 -1.88,-7.58 -2.91,-11.74 l 3.13,-0.06 z m -47.08,-153 a 9.08,9.08 0 0 0 -0.94,0.66 c -0.29,-0.74 -0.56,-1.5 -0.83,-2.26 a 5.25,5.25 0 0 0 1.77,1.6 z m -94.63,160.42 c -4.69,6.09 -5.24,10 -5.24,10 l 1.18,0.27 -8.51,7.61 -4.29,-36.87 20.75,0.9 c -1.17,9.11 -2.5,16.28 -3.89,18.09 z m 20.13,76.84 c 0,0 4.28,-1 9.86,-2.62 l -1.77,13.3 c -5,-6.49 -8.09,-10.68 -8.09,-10.68 z m -11.91,-146 0.15,-0.34 v 0.35 z m -106.13,91.46 c -4.64,-2.1 -37.42,-12.17 -49.35,-15.82 a 2.42,2.42 0 0 1 -0.29,-1.87 c 1.11,-3.68 -7.35,-13.63 -10.66,-16.21 -3.31,-2.58 -7.72,-7.37 -4.05,-10.32 a 6.24,6.24 0 0 0 1.79,-3.35 l 34.18,1.49 a 83.78,83.78 0 0 0 10,3 c 0,0 5.81,-0.76 13.45,-2 l 67.64,2.93 6.42,52.31 c -4.21,3.86 -7.07,6.56 -7.07,6.78 0,0.48 -4.53,8.2 -5.08,18.37 l -35.29,-11 a 5.1,5.1 0 0 0 0.19,-0.55 c 3.35,-12.15 -16.18,-21.18 -21.88,-23.76 z m -61.87,-56.11 c -0.06,-2.47 -0.27,-4.33 -0.27,-4.33 l -0.76,-8.24 c 6.66,4.07 13.86,8.59 19,12.12 z m 159.32,155.74 0.73,-0.5 a 10.09,10.09 0 0 0 5,-3.46 c 2.95,2.57 5.7,4.94 8.11,7 -2.82,2.6 -7.78,6.83 -12.45,9.06 z m 140.88,-57.61 -1.3,71.64 -9.91,-66.38 c 2.8,-1.39 7.18,-3.42 11.21,-5.26 z m 61.9,-97.48 c 0,0 10.66,13.27 18.94,8.84 v 0 c 1.86,0.24 15.41,-7.08 24.1,-11.9 a 39.44,39.44 0 0 0 4.21,5.08 l 5.26,-2.72 1.05,-0.54 c 0.52,5.71 1.42,15.22 2.15,21.32 1.1,9.17 -14.2,21.63 -14.34,21.74 v 0 c 0,0 0.06,0.46 0.1,1.18 -0.75,0.67 -1.2,1 -1.2,1 l 1.23,-0.22 c 0.11,2.89 -0.1,8 -2.71,9.07 -3.67,1.48 -5.88,2.58 -13.24,0.37 a 137.55,137.55 0 0 0 -27.28,-4.48 c -12.77,-0.74 -26.44,0.64 -33,8.16 -0.23,0.27 -0.45,0.56 -0.66,0.86 -0.21,0.3 -0.22,0.33 -0.33,0.49 a 3.24,3.24 0 0 0 -0.66,0.31 c 0,0 0,0.24 0.1,0.62 -3.56,6.42 -4.55,18.29 -4.33,31.07 l -1.1,0.47 -0.54,0.25 -0.41,0.2 c -0.38,0.17 -0.76,0.36 -1.14,0.55 l -0.68,0.34 -0.88,0.47 -1,0.55 -0.57,0.34 c -0.42,0.24 -0.84,0.5 -1.26,0.77 l -0.3,0.19 c -0.48,0.32 -1,0.64 -1.43,1 l -0.12,0.1 c -0.18,0.12 -0.35,0.25 -0.52,0.38 l 1.24,-82.12 54.39,-1 -0.83,-7.74 -8.4,-0.51 a 23.12,23.12 0 0 0 4.16,-4.49 z m -390.19,204.63 0.3,-0.75 c 0,-0.06 0.05,-0.12 0.08,-0.19 l 0.29,-0.66 v 0 l 0.29,1.57 c -0.4,0.23 -0.8,0.47 -1.22,0.7 0.09,-0.22 0.17,-0.44 0.25,-0.65 z m 192.19,-8.49 a 81.33,81.33 0 0 0 14.37,-4 l -7.93,59.36 z m 135.47,52.53 c 0.72,0.17 1.47,0.33 2.24,0.49 v 1.73 l -2.34,0.12 z"
     id="path176"
     inkscape:connector-curvature="0"
     style="fill:url(#linearGradient835)" />
  <path
     d="m 145.34857,486.9831 c 0,0 2,9.38 -0.34,15.35 -2.34,5.97 -2,19 -0.34,23.6 1.66,4.6 7.42,10.8 -8.09,13.65 -15.51,2.85 -26,0.28 -26.63,-2 -0.63,-2.28 -4.05,-11.37 -1.35,-16.49 2.7,-5.12 3.71,-18.48 -1.35,-26.16 -5.06,-7.68 -1.69,-19.61 3,-21 4.69,-1.39 25.09,-13.53 25.09,-13.53 0,0 -7.55,13.11 0.55,16 a 14.69,14.69 0 0 1 9.46,10.58 z"
     id="path180"
     inkscape:connector-curvature="0"
     style="fill:#575a88" />
  <path
     d="m 315.84857,414.2431 c 0,0 -31.2,21.65 -44.76,27.51 -13.56,5.86 -58.7,27.15 -58.7,27.15 0,0 -45.48,5.87 -52.82,15.41 -7.34,9.54 -17.61,20.55 -17.61,20.55 l -8.07,-44.76 c 0,0 89.51,-46.23 90.24,-49.53 0.73,-3.3 26.42,-13.21 -48.42,-12.84 -65.58,0.33 -89.750005,4.59 -95.230005,-4.48 a 10,10 0 0 1 -1.26,-4.69 c -0.74,-15 88.050005,-81.45 88.050005,-81.45 0,0 4.34,2.26 9.52,5.3 5.68,3.32 12.36,7.59 15.43,10.85 5.87,6.23 20.17,8.07 20.17,8.07 l 87.32,27.18 c 0,0 25.68,8.07 26.41,30.82 0.73,22.75 -10.27,24.91 -10.27,24.91 z"
     id="path182"
     inkscape:connector-curvature="0"
     style="fill:#aac9f5" />
  <path
     d="m 326.11857,389.3031 c -0.73,-22.79 -26.41,-30.79 -26.41,-30.79 l -87.32,-27.15 c 0,0 -14.3,-1.84 -20.17,-8.07 -3.07,-3.26 -9.75,-7.53 -15.43,-10.85 -5.18,-3 -9.52,-5.3 -9.52,-5.3 0,0 -88.790005,66.4 -88.050005,81.45 a 10,10 0 0 0 1.26,4.69 c 5.48,9.07 29.650005,4.81 95.230005,4.48 74.84,-0.37 49.15,9.54 48.42,12.84 -0.73,3.3 -90.24,49.53 -90.24,49.53 l 0.18,1 c -4.54,2.68 -19.78,11.57 -23.79,12.77 -4.72,1.43 -8.09,13.37 -3,21 5.09,7.63 4,21 1.35,26.16 -2.65,5.16 0.67,14.21 1.35,16.49 0.68,2.28 11.12,4.83 26.63,2 15.51,-2.83 9.78,-9.1 8.09,-13.65 -1.69,-4.55 -2,-17.63 0.34,-23.6 a 12.78,12.78 0 0 0 0.42,-1.28 c 3.65,-4 9.48,-10.69 14.14,-16.74 7.34,-9.54 52.82,-15.41 52.82,-15.41 0,0 45.13,-21.27 58.7,-27.15 13.57,-5.88 44.76,-27.51 44.76,-27.51 0,0 10.98,-2.18 10.24,-24.91 z m -190.2,87 c -6.07,-2.14 -3.35,-10.05 -1.61,-13.87 l 2.57,14.26 c -0.31,-0.1 -0.62,-0.24 -0.96,-0.36 z"
     id="path184"
     inkscape:connector-curvature="0"
     style="opacity:0.1" />
  <path
     d="m 202.48857,411.8631 c 0,0 25.31,96.85 27.33,105.1 2.02,8.25 2,23.3 2,23.3 0,0 9.54,-0.55 10.82,-2 1.28,-1.45 -5,-29.53 -5,-29.53 l 1.83,-78.51 -26.78,-22.56 z"
     id="path186"
     inkscape:connector-curvature="0"
     style="fill:#d5838e" />
  <rect
     x="136.50858"
     y="463.99313"
     width="19.809999"
     height="17.059999"
     id="rect188"
     style="fill:#ffccd0" />
  <path
     d="m 150.84857,486.9831 c 0,0 2,9.38 -0.34,15.35 -2.34,5.97 -2,19 -0.33,23.6 1.67,4.6 7.41,10.8 -8.1,13.65 -15.51,2.85 -26,0.28 -26.63,-2 -0.63,-2.28 -4.05,-11.37 -1.35,-16.49 2.7,-5.12 3.71,-18.48 -1.35,-26.16 -5.06,-7.68 -1.68,-19.61 3,-21 4.68,-1.39 25.08,-13.53 25.08,-13.53 0,0 -7.54,13.11 0.55,16 a 14.69,14.69 0 0 1 9.47,10.58 z"
     id="path190"
     inkscape:connector-curvature="0"
     style="fill:#575a88" />
  <path
     d="m 169.83857,298.5131 c 0,0 47.87,14.49 53.56,17.06 5.69,2.57 25.13,11.56 21.83,23.66 -3.3,12.1 -30.27,13.4 -30.27,13.4 l -41.09,-15.23 -16.14,-32.65 z"
     id="path192"
     inkscape:connector-curvature="0"
     style="fill:#575a88" />
  <path
     d="m 185.42857,130.5131 c 0,0 -2.36,3.67 -5.56,9.29 -0.26,0.46 -0.54,0.94 -0.81,1.44 -8.75,15.57 -22.49,43.59 -13.72,52.55 12.39,12.66 -28.34,-7.15 -28.34,-7.15 l -1,-1.79 -16.63,-30.13 c 0,0 13.07,-13.2 20.94,-24.78 0.13,-0.18 0.26,-0.37 0.38,-0.56 3.51,-5.25 5.88,-10.11 5.37,-13.18 -0.51,-3.07 3.36,-2.84 8.87,-0.9 11.65,4.03 30.5,15.21 30.5,15.21 z"
     id="path194"
     inkscape:connector-curvature="0"
     style="fill:#cd828d" />
  <path
     d="m 185.42857,130.5131 c 0,0 -2.36,3.67 -5.56,9.29 -0.26,0.46 -0.54,0.94 -0.81,1.44 a 32,32 0 0 1 -18.19,1.93 32.07,32.07 0 0 1 -20.16,-12.69 c -0.13,-0.17 -0.25,-0.35 -0.38,-0.54 0.13,-0.18 0.26,-0.37 0.38,-0.56 3.51,-5.25 5.88,-10.11 5.37,-13.18 -0.51,-3.07 3.36,-2.84 8.87,-0.9 11.63,4.03 30.48,15.21 30.48,15.21 z"
     id="path196"
     inkscape:connector-curvature="0"
     style="opacity:0.1" />
  <path
     d="m 198.90857,110.3831 a 32.19,32.19 0 0 1 -32.19,32.19 31.44,31.44 0 0 1 -5.85,-0.54 32.18,32.18 0 1 1 38,-31.65 z"
     id="path198"
     inkscape:connector-curvature="0"
     style="fill:#cd828d" />
  <path
     d="m 190.82857,89.073098 c -1.94,0.65 -3.22,2 -5,3 -3.11,1.76 -7.24,1.71 -10.2,3.43 -2.45,1.42 -2.45,4.4 -3.5,6.760002 -2.75,6.17 -12.69,7.75 -17.18,13 a 10.47,10.47 0 0 0 -1,1.39 c -2.44,4.12 -1,9.08 0.9,13.42 a 108.86,108.86 0 0 0 6,12 c 0.4,0.69 0.81,1.37 1.23,2.05 2.44,4 5.26,8.41 3.76,12.72 -2.44,7 -14.38,8.63 -17.86,15.33 -1,2 -1.19,4.23 -2.28,6.19 -1.83,3.32 -5.6,5 -9.7,6.49 l -16.63,-30.13 c 0,0 13.5,-13.63 21.32,-25.34 a 32.18,32.18 0 0 1 50.12,-40.270002 z"
     id="path200"
     inkscape:connector-curvature="0"
     style="opacity:0.1" />
  <path
     d="m 201.39857,82.253098 c -1.74,-2 -4.48,-3.32 -5.75,-5.55 a 17.8,17.8 0 0 1 -1.31,-4.26 15.19,15.19 0 0 0 -9.3,-9.6 19.66,19.66 0 0 0 -14.62,0.32 c -2.16,1 -4.07,2.3 -6.31,3.11 -4.65,1.66 -10,0.75 -14.78,-0.58 -4.78,-1.33 -9.57,-3.09 -14.62,-3.06 -5.05,0.03 -10.53,2.52 -11.52,6.72 a 30,30 0 0 0 -0.32,3.42 c -0.6,5.08 -5.25,9.18 -10.29,12 -5.04,2.82 -10.74,4.75 -15.410005,8 -4.67,3.25 -8.32,8.280002 -7.06,13.280002 0.78,3.11 3.29,5.65 5.3,8.34 5.070005,6.79 7.100005,14.85 9.000005,22.73 0.68,2.74 1.36,5.58 0.7,8.33 -1.18,4.95 -6.290005,8.39 -9.630005,12.57 -4.14,5.2 -5.55,11.7 -5.25,18 0.3,6.3 2.17,12.41 4.1,18.48 a 23,23 0 0 0 2.82,6.41 c 2.43,3.47 6.610005,5.75 10.640005,7.89 a 12.48,12.48 0 0 0 5.88,1.94 c 4.43,-0.06 7,-4.26 7.95,-7.93 a 31.13,31.13 0 0 0 0.91,-9.31 6.78,6.78 0 0 1 0.31,-3.32 6.29,6.29 0 0 1 2.56,-2.44 c 6.33,-3.8 15.9,-4.47 19.18,-10.43 1.08,-2 1.25,-4.2 2.28,-6.18 3.47,-6.71 15.41,-8.31 17.86,-15.34 1.5,-4.31 -1.32,-8.74 -3.76,-12.73 a 105.57,105.57 0 0 1 -7.25,-14 c -1.85,-4.34 -3.35,-9.3 -0.91,-13.42 3.78,-6.39 15.21,-7.68 18.19,-14.37 1.05,-2.350002 1.05,-5.340002 3.5,-6.760002 3,-1.71 7.09,-1.68 10.2,-3.43 2,-1.15 3.4,-2.75 5.86,-3.27 3.21,-0.67 7.66,1.91 10.39,0.55 2.45,-1.29 1.88,-4.49 0.46,-6.11 z"
     id="path202"
     inkscape:connector-curvature="0"
     style="fill:#663d5c" />
  <path
     d="m 201.03857,82.253098 c -1.74,-2 -4.49,-3.32 -5.76,-5.55 a 18.75,18.75 0 0 1 -1.31,-4.26 15,15 0 0 0 -8.41,-9.2 14,14 0 0 1 4.38,6.63 18.09,18.09 0 0 0 1.3,4.26 c 1.27,2.23 4,3.56 5.76,5.55 1.42,1.62 2,4.83 -0.43,6 -2.72,1.36 -7.17,-1.21 -10.38,-0.54 -2.46,0.51 -3.83,2.11 -5.86,3.26 -3.11,1.76 -7.24,1.72 -10.2,3.44 -2.45,1.41 -2.45,4.4 -3.5,6.75 -3,6.690002 -14.41,8.000002 -18.2,14.370002 -2.44,4.12 -0.93,9.09 0.92,13.42 a 107.46,107.46 0 0 0 7.24,14 c 2.45,4 5.26,8.41 3.77,12.72 -2.45,7 -14.39,8.63 -17.87,15.34 -1,2 -1.19,4.22 -2.27,6.18 -3.29,6 -12.86,6.64 -19.18,10.43 a 6.29,6.29 0 0 0 -2.56,2.44 6.67,6.67 0 0 0 -0.31,3.32 31.13,31.13 0 0 1 -0.91,9.31 c -0.93,3.68 -3.53,7.87 -7.95,7.93 a 12.52,12.52 0 0 1 -5.89,-1.94 c -0.88,-0.47 -1.78,-0.95 -2.66,-1.45 a 54.5,54.5 0 0 0 6.7,4 12.48,12.48 0 0 0 5.89,1.94 c 4.42,-0.06 7,-4.26 7.95,-7.93 a 31.12,31.12 0 0 0 0.9,-9.31 6.78,6.78 0 0 1 0.32,-3.32 6.27,6.27 0 0 1 2.55,-2.44 c 6.33,-3.8 15.9,-4.47 19.19,-10.43 1.08,-2 1.24,-4.2 2.27,-6.18 3.48,-6.71 15.42,-8.31 17.86,-15.34 1.5,-4.31 -1.31,-8.74 -3.76,-12.73 a 106.78,106.78 0 0 1 -7.25,-14 c -1.85,-4.34 -3.35,-9.3 -0.91,-13.42 3.79,-6.39 15.21,-7.68 18.19,-14.37 1.05,-2.350002 1.06,-5.340002 3.5,-6.760002 3,-1.71 7.09,-1.68 10.2,-3.43 2,-1.15 3.4,-2.75 5.86,-3.27 3.21,-0.67 7.66,1.91 10.39,0.55 2.41,-1.15 1.84,-4.35 0.43,-5.97 z"
     id="path204"
     inkscape:connector-curvature="0"
     style="opacity:0.1" />
  <path
     d="m 554.12857,230.2631 c 0,0 5,21 16,32.09 l 4.41,-9.58 -5.51,-17.47 z"
     id="path206"
     inkscape:connector-curvature="0"
     style="fill:#f26383" />
  <path
     d="m 568.98857,235.3031 -14.86,-5 c 0,0 5,21 16,32.09"
     id="path208"
     inkscape:connector-curvature="0"
     style="opacity:0.1" />
  <path
     d="m 748.74857,280.3431 -0.16,0.13 a 10.49,10.49 0 0 1 -14.31,-1.31 l -42,-47.13 -1.09,-1.22 22,-25.32 4,2.57 0.9,1.62 c 3.44,6.05 15.57,27.21 19.64,30.66 4.8,4.04 16.53,35.59 11.02,40 z"
     id="path210"
     inkscape:connector-curvature="0"
     style="fill:#ffc1c7" />
  <path
     d="m 336.75857,415.5131 c 0,0 -11.28,11.56 -19,12.66 -7.72,1.1 -14,25.87 -3.3,27.79 10.7,1.92 31.36,-5.78 34.39,-9.08 3.03,-3.3 14,-22.84 14,-22.84 z"
     id="path212"
     inkscape:connector-curvature="0"
     style="fill:#ffd6db" />
  <path
     d="m 573.20857,253.1831 -5.48,3.1 c -8.46,4.7 -23.91,13.13 -25.89,12.86 -2.75,-0.36 -3.3,-26.22 -3.3,-26.22 l 14.63,-10.81 1.51,-1.13 4.41,-1.65 z"
     id="path214"
     inkscape:connector-curvature="0"
     style="fill:#ffc1c7" />
  <path
     d="m 573.20857,253.1831 -5.48,3.1 a 33.59,33.59 0 0 0 -14.56,-24.17 l 1.51,-1.13 4.41,-1.65 z"
     id="path216"
     inkscape:connector-curvature="0"
     style="opacity:0.1" />
  <path
     d="m 604.20857,223.1031 -17.06,30.41 -11.81,6.09 -5.25,2.71 c 1.47,-22.92 -16,-32.09 -16,-32.09 4.77,-1 34.23,-27.39 38.55,-31.27 l 0.53,-0.47 4,-0.55 z"
     id="path218"
     inkscape:connector-curvature="0"
     style="fill:#fbb12c" />
  <path
     d="m 657.95857,387.2731 -14.49,-11 47.32,-157 16.7,6.24 -12.66,24.94 -13.94,77.76 c 0,0 -8.24,55.4 -22.93,59.06 z"
     id="path220"
     inkscape:connector-curvature="0"
     style="fill:#e4aab4" />
  <path
     d="m 714.26857,202.1931 -49.89,-0.37 c 0,0 -43.66,12.11 -40,-5.5 2.29,-11 -3.15,-24.74 -7.57,-33.49 -0.53,-1.06 -1,-2.06 -1.55,-3 -1.91,-3.54 -3.35,-5.73 -3.35,-5.73 0,0 5.19,-0.86 11.74,-1.78 3,-0.44 6.38,-0.88 9.62,-1.27 v 0 c 1.7,-0.21 3.36,-0.38 4.93,-0.55 6.42,-0.63 11.47,-0.78 11.47,0.3 0,1.08 1,3.67 2.62,7 0.25,0.53 0.54,1.08 0.82,1.63 a 71.67,71.67 0 0 0 7.9,12.11 29,29 0 0 0 5.54,5.34 18.06,18.06 0 0 0 2.33,1.37 14,14 0 0 0 3.88,1.25 c 5.57,0.94 10.69,-1.49 18,0.68 9.94,2.93 23.51,22.01 23.51,22.01 z"
     id="path222"
     inkscape:connector-curvature="0"
     style="fill:#ffc1c7" />
  <path
     d="m 450.64857,325.0931 c 0,0 -42,23.11 -44.58,32.28 -2.58,9.17 6.24,16.51 6.24,16.51 0,0 1.47,7.89 2,13.76 0.53,5.87 7.33,62.92 10.45,67.69 3.12,4.77 0.55,22.75 0.55,22.75 h 10.14 l -0.73,-27.52 c 0,0 -11.38,-80.89 -1.84,-89.15 9.54,-8.26 17.43,-17.61 20.18,-16.88 2.75,0.73 -2.41,-19.44 -2.41,-19.44 z"
     id="path224"
     inkscape:connector-curvature="0"
     style="fill:#e4aab4" />
  <path
     d="m 398.94857,292.2631 c 0,0 -27.52,52.55 -28.07,59.7 -0.55,7.15 -23.94,37.42 -23.94,37.42 l 29.17,36.87 c 0,0 3.85,-9.35 10.46,-12.65 6.61,-3.3 5.22,-10.73 5.22,-10.73 0,0 6.88,0 11.84,-8.26 4.96,-8.26 11,-16.51 11,-20.08 0,-3.57 36.32,-41 36.32,-41 l -2.75,-39.9 -7.43,-12.66 z"
     id="path226"
     inkscape:connector-curvature="0"
     style="fill:#bdd2e8" />
  <path
     d="m 327.40857,295.2831 -0.24,0.21 c -3.34,3 -40.76,36.15 -40.76,36.94 0,0.79 -13.48,23.11 3.3,42.37 16.78,19.26 55.31,50.9 55.31,50.9 0,0 16.78,12.11 19,14.59 2.22,2.48 35.5,0 15.69,-22.56 -19.81,-22.56 -38.52,-47.88 -38.52,-47.88 0,0 33,-8 35.22,-13.48 2.22,-5.48 -43.48,-74.3 -43.48,-74.3 z"
     id="path228"
     inkscape:connector-curvature="0"
     style="opacity:0.1" />
  <path
     d="m 326.30857,295.2831 -0.24,0.21 c -3.34,3 -40.76,36.15 -40.76,36.94 0,0.79 -13.48,23.08 3.34,42.37 16.82,19.29 55.31,50.9 55.31,50.9 0,0 16.78,12.11 19,14.59 2.22,2.48 35.5,0 15.69,-22.56 -19.81,-22.56 -38.52,-47.88 -38.52,-47.88 0,0 33,-8 35.21,-13.48 2.21,-5.48 45.68,-72.92 45.68,-72.92 l -89.15,-1.38 z"
     id="path230"
     inkscape:connector-curvature="0"
     style="fill:#bdd2e8" />
  <path
     d="m 421.50857,147.2531 -3.3,30 c 0,0 -33.85,13.48 -34.67,13.21 -0.82,-0.27 -22.56,-19.81 -19,-32.74 1.8,-6.49 2.62,-15.48 3,-22.82 0.38,-7.34 0.31,-12.95 0.31,-12.95 0,0 49.25,-17.61 44.85,-5.51 -1.6,4.39 -0.88,9.67 0.69,14.59 a 67.88,67.88 0 0 0 8.12,16.22 z"
     id="path232"
     inkscape:connector-curvature="0"
     style="fill:#cf6f80" />
  <path
     d="m 120.48857,84.793098 -0.07,0.18 a 156.68,156.68 0 0 0 -9.3,25.590002 l -0.3,1.17 a 62.7,62.7 0 0 0 -2.06,18 c 0.67,13.12 7.33,16.15 7.33,16.15 0,0 -100.700008,-16.5 -84.200008,-19.26 2.66,-0.44 5.56,-2.09 8.58,-4.54 5.67,-4.62 11.72,-12.12 17.12,-19.82 2,-2.840002 3.93,-5.720002 5.69,-8.470002 0.12,-0.18 0.25,-0.37 0.36,-0.55 6.58,-10.26 11.180003,-18.9 11.180003,-18.9 0,0 69.340005,-41.83 45.670005,10.45 z"
     id="path234"
     inkscape:connector-curvature="0"
     style="fill:#ffccd0" />
  <path
     d="m 619.43857,406.5131 c 0,0 25.31,96.85 27.33,105.1 2.02,8.25 2,23.3 2,23.3 0,0 9.53,-0.55 10.82,-2 1.29,-1.45 -5,-29.53 -5,-29.53 l 1.83,-78.51 -26.78,-22.56 z"
     id="path236"
     inkscape:connector-curvature="0"
     style="fill:#d5838e" />
  <path
     d="m 634.28857,375.7231 c 0.56,0 25.32,0.55 25.32,0.55 l 1.83,17.43 c 0,0 -0.73,33 1.1,38 1.83,5 18.16,94.65 18.16,94.65 0,0 5.14,31.55 4.77,39.25 l -11.92,2.57 c 0,0 2.38,-6.79 -1.1,-19.44 -3.48,-12.65 -10.27,-36.32 -10.27,-36.32 l -8.62,-38.9 c 0,0 -1.47,-69 -54.48,-66 -53.01,3 -55.95,41 -55.95,41 0,0 -18,74.29 -21.1,83.47 -3.1,9.18 -4.77,31.73 -4.77,31.73 l -12.1,-1.1 4,-60 11.19,-123.46 34.49,-2.38 z"
     id="path238"
     inkscape:connector-curvature="0"
     style="fill:#e4aab4" />
  <path
     d="m 99.888565,422.5131 c 0,0 -25.31,96.86 -27.33,105.11 -2.020003,8.25 -2.000003,23.3 -2.000003,23.3 0,0 -9.54,-0.55 -10.82,-2 -1.28,-1.45 4.91,-29.57 4.91,-29.57 l -1.83,-78.51 26.830003,-22.56 z"
     id="path240"
     inkscape:connector-curvature="0"
     style="fill:#d5838e" />
  <path
     d="m 85.028565,391.6831 c -0.55,0 -25.310003,0.55 -25.310003,0.55 l -1.84,17.42 c 0,0 0.74,33 -1.1,38 -1.84,5 -18.13,94.63 -18.13,94.63 0,0 -5.13,31.55 -4.77,39.25 l 11.93,2.57 c 0,0 -2.39,-6.79 1.1,-19.44 3.49,-12.65 10.27,-36.32 10.27,-36.32 l 8.62,-38.89 c 0,0 1.47,-69 54.480008,-66 53.01,3 55.92,41.06 55.92,41.06 0,0 18,74.29 21.09,83.46 3.09,9.17 4.77,31.74 4.77,31.74 l 12.11,-1.1 -4,-60 -11.23,-123.45 -34.48,-2.38 z"
     id="path242"
     inkscape:connector-curvature="0"
     style="fill:#e4aab4" />
  <path
     d="m 413.39857,131.0231 c -0.3,0.35 -0.61,0.68 -0.91,1 a 33,33 0 0 1 -44.94,2.86 c 0.37,-7.29 0.31,-12.95 0.31,-12.95 0,0 49.25,-17.61 44.85,-5.51 -1.6,4.4 -0.88,9.68 0.69,14.6 z"
     id="path244"
     inkscape:connector-curvature="0"
     style="opacity:0.1" />
  <path
     d="m 421.50857,108.2731 a 33,33 0 1 1 -33,-33.000002 32.82,32.82 0 0 1 33,33.000002 z"
     id="path246"
     inkscape:connector-curvature="0"
     style="fill:#cf6f80" />
  <path
     d="m 321.34857,414.2431 c 0,0 -31.18,21.65 -44.76,27.51 -13.58,5.86 -58.69,27.15 -58.69,27.15 0,0 -45.49,5.87 -52.83,15.41 -7.34,9.54 -17.61,20.55 -17.61,20.55 l -8.07,-44.76 c 0,0 89.51,-46.23 90.25,-49.53 0.74,-3.3 26.42,-13.21 -48.43,-12.84 -65.58,0.33 -89.750005,4.59 -95.230005,-4.48 a 10,10 0 0 1 -1.26,-4.69 c -0.73,-15 88.050005,-81.45 88.050005,-81.45 0,0 4.34,2.26 9.52,5.3 5.68,3.32 12.36,7.59 15.43,10.85 5.87,6.23 20.18,8.07 20.18,8.07 l 87.31,27.18 c 0,0 25.69,8 26.44,30.79 0.75,22.79 -10.3,24.94 -10.3,24.94 z"
     id="path248"
     inkscape:connector-curvature="0"
     style="fill:#aac9f5" />
  <path
     d="m 380.78857,178.3931 c 0,0 -12.93,-28.66 -17.34,-28.66 -4.41,0 -11.28,148.25 -11.28,148.25 l 67.41,1.06 2.76,-77.84 -13.76,-69 c 0,0 -12.38,27.25 -27.79,26.19 z"
     id="path250"
     inkscape:connector-curvature="0"
     style="opacity:0.1" />
  <path
     d="m 380.78857,180.5931 c 0,0 -12.93,-28.66 -17.34,-28.66 -4.41,0 -11.28,148.25 -11.28,148.25 l 76.48,1.16 -6.32,-77.94 -13.76,-69 c 0,0 -12.37,27.25 -27.78,26.19 z"
     id="path252"
     inkscape:connector-curvature="0"
     style="opacity:0.1" />
  <path
     d="m 380.78857,179.5131 c 0,0 -12.93,-28.66 -17.34,-28.66 -4.41,0 -11.28,148.25 -11.28,148.25 l 76.48,1.13 -6.32,-77.93 -13.76,-69 c 0,0 -12.37,27.21 -27.78,26.21 z"
     id="path254"
     inkscape:connector-curvature="0"
     style="fill:#ffd6db" />
  <path
     d="m 368.23857,141.8331 c 0,0 -2.31,-3.38 -5.61,-2.28 -3.3,1.1 -5.78,-1.93 -9.08,1.1 -3.3,3.03 -16.51,7.15 -19,5.77 -2.49,-1.38 -11.28,4.68 -13.21,8.26 -1.93,3.58 -8.25,13.21 -8.25,13.21 0,0 -5.5,6.6 -4.68,10.18 0.82,3.58 -1.92,7.7 -5.23,9.35 -3.31,1.65 -9.9,18.16 -9.9,18.16 0,0 -7.15,15.14 -14.58,19 -7.43,3.86 -1.93,20.63 -1.93,20.63 l 44,-1.37 9.91,-22.56 c 0,0 -3.85,66 -8.53,72.09 -4.68,6.09 -5.23,9.9 -5.23,9.9 0,0 18.16,3.85 22,7.16 3.84,3.31 14,-0.83 14,-0.83 l 9.9,-87.77 c 0,0 3.58,-16.51 3.58,-25 0,-8.49 1.84,-55 1.84,-55 z"
     id="path256"
     inkscape:connector-curvature="0"
     style="opacity:0.1" />
  <path
     d="m 367.13857,141.8331 c 0,0 -2.31,-3.38 -5.61,-2.28 -3.3,1.1 -5.78,-1.93 -9.08,1.1 -3.3,3.03 -16.51,7.15 -19,5.77 -2.49,-1.38 -11.28,4.68 -13.21,8.26 -1.93,3.58 -8.25,13.21 -8.25,13.21 0,0 -5.5,6.6 -4.68,10.18 0.82,3.58 -1.92,7.7 -5.23,9.35 -3.31,1.65 -9.9,18.16 -9.9,18.16 0,0 -7.16,15.14 -14.58,19 -7.42,3.86 -1.95,20.62 -1.95,20.62 l 44,-1.37 10,-22.56 c 0,0 -3.85,66 -8.53,72.09 -4.68,6.09 -5.23,9.9 -5.23,9.9 0,0 18.16,3.85 22,7.16 3.84,3.31 14,-0.83 14,-0.83 l 9.9,-87.77 c 0,0 3.58,-16.51 3.58,-25 0,-8.49 1.77,-54.99 1.77,-54.99 z"
     id="path258"
     inkscape:connector-curvature="0"
     style="fill:#575a89" />
  <path
     d="m 306.49857,189.6231 c 0,0 3.3,9.08 12.38,8.26 9.08,-0.82 -12.38,-8.26 -12.38,-8.26 z"
     id="path260"
     inkscape:connector-curvature="0"
     style="opacity:0.1" />
  <path
     d="m 315.29857,175.8731 c 0,0 6.05,1.1 8.26,6.32 2.21,5.22 -8.26,-6.32 -8.26,-6.32 z"
     id="path262"
     inkscape:connector-curvature="0"
     style="opacity:0.1" />
  <path
     d="m 332.35857,166.5131 c 0,1.1 3.85,20.36 0,28.34 -3.85,7.98 -3.3,17.34 -3.3,17.34 z"
     id="path264"
     inkscape:connector-curvature="0"
     style="opacity:0.1" />
  <path
     d="m 413.57857,135.2031 c 0,0 2.15,-2.53 4.35,-2.26 2.2,0.27 3.58,1.65 6.33,2.75 2.75,1.1 9.36,1.38 9.36,2.2 0,0.82 5.78,4.13 9.63,5 3.85,0.87 16,9.08 19,25 3,15.92 8.24,20.62 8.24,20.62 l -29.17,14.31 c 0,0 22.56,95.76 25.33,102.69 2.77,6.93 3,47.6 3,47.6 0,0 -17.88,8 -22.56,10.46 -4.68,2.46 -2.75,-23.66 -12.38,-38.8 -9.63,-15.14 -20.64,-37.14 -20.64,-37.14 l -16.77,-47.12 c 0,0 -10.73,-62.74 -1.65,-74.29 9.08,-11.55 18.75,-26.89 17.93,-31.02 z"
     id="path266"
     inkscape:connector-curvature="0"
     style="opacity:0.1" />
  <path
     d="m 414.64857,135.2031 c 0,0 2.15,-2.53 4.35,-2.26 2.2,0.27 3.58,1.65 6.33,2.75 2.75,1.1 9.36,1.38 9.36,2.2 0,0.82 5.78,4.13 9.63,5 3.85,0.87 16,9.08 19,25 3,15.92 8.27,20.62 8.27,20.62 l -29.17,14.31 c 0,0 22.56,95.76 25.32,102.69 2.76,6.93 3,47.6 3,47.6 0,0 -17.88,8 -22.56,10.46 -4.68,2.46 -2.75,-23.66 -12.38,-38.8 -9.63,-15.14 -20.64,-37.14 -20.64,-37.14 l -16.76,-47.12 c 0,0 -10.75,-62.72 -1.65,-74.27 9.1,-11.55 18.75,-26.91 17.9,-31.04 z"
     id="path268"
     inkscape:connector-curvature="0"
     style="fill:#575a89" />
  <path
     d="m 474.33857,255.6631 c -0.81,0.13 -1.85,0.25 -3.05,0.36 -8.81,0.81 -26.12,1 -26.12,1 0,0 -12.93,-25.59 -23.93,-24.77 0,0 10.18,-11.55 14.3,-10.18 0.7,0.23 1.13,-0.27 1.33,-1.26 1.11,-4.91 -2.7,-21.85 -2.7,-21.85 l -5.23,-22.84 30.27,7.43 c 2.75,0.55 11.28,4.95 11.28,4.95 0,0 0.27,11.83 2.47,14.59 2.2,2.76 4.68,15.95 4.41,19.26 -0.27,3.31 3,18.71 -0.28,22.83 -3.28,4.12 4.13,9.38 -2.75,10.48 z"
     id="path270"
     inkscape:connector-curvature="0"
     style="opacity:0.1" />
  <path
     d="m 475.43857,255.6631 c -0.81,0.13 -1.85,0.25 -3,0.36 -8.81,0.81 -26.12,1 -26.12,1 0,0 -12.93,-25.59 -23.93,-24.77 0,0 10.18,-11.55 14.3,-10.18 0.7,0.23 1.13,-0.27 1.34,-1.26 1.1,-4.91 -2.71,-21.85 -2.71,-21.85 l -5.23,-22.84 30.27,7.43 c 2.75,0.55 11.28,4.95 11.28,4.95 0,0 0.27,11.83 2.47,14.59 2.2,2.76 4.68,15.95 4.41,19.26 -0.27,3.31 3,18.71 -0.28,22.83 -3.28,4.12 4.08,9.38 -2.8,10.48 z"
     id="path272"
     inkscape:connector-curvature="0"
     style="fill:#575a89" />
  <path
     d="m 444.34857,195.6831 c 0,0 25.31,2.75 26.41,9.08 1.1,6.33 -26.41,-9.08 -26.41,-9.08 z"
     id="path274"
     inkscape:connector-curvature="0"
     style="opacity:0.1" />
  <path
     d="m 361.24857,435.8931 c 0,0 -1.65,9.08 0.28,14.85 1.93,5.77 1.65,18.44 0.27,22.84 -1.38,4.4 -6,10.46 6.61,13.21 12.61,2.75 21.18,0.27 21.73,-1.93 0.55,-2.2 3.3,-11 1.1,-16 -2.2,-5 -3,-17.88 1.1,-25.31 4.1,-7.43 1.38,-19 -2.47,-20.36 -3.85,-1.36 -10.46,-4.4 -10.46,-4.4 0,0 7.16,12.93 0.55,15.68 -6.61,2.75 -18.71,1.42 -18.71,1.42 z"
     id="path276"
     inkscape:connector-curvature="0"
     style="fill:#ffd6db" />
  <path
     d="m 421.50857,108.2731 a 32.82,32.82 0 0 1 -9,22.66 0.6,0.6 0 0 1 -0.08,-0.16 c -1,-2.09 -1.92,-4.27 -1.84,-6.56 0.09,-2.77 1.68,-5.27 2.2,-8 0.65,-3.45 -0.48,-7 -1.59,-10.3 -0.82,-2.44 -2.39,-5.4 -4.95,-5.11 a 5.62,5.62 0 0 1 -1.51,0.18 c -1.37,-0.21 -1.64,-2.000002 -1.8,-3.360002 a 15.23,15.23 0 0 0 -12.44,-13.05 3.81,3.81 0 0 0 -2.17,0.14 c -0.95,0.43 -1.48,1.47 -2.34,2.06 -2.79,1.94 -6.35,-1.77 -9.74,-1.49 -2.88,0.25 -4.64,3.2 -5.83,5.84 -1.19,2.64 -2.68,5.64 -5.5,6.26 a 1.72,1.72 0 0 1 -1.34,-0.15 c -0.88,-0.64 -0.27,-2 0.18,-3 1.16,-2.62 0.38,-4.7 -1,-6.56 a 33,33 0 0 1 58.81,20.610002 z"
     id="path278"
     inkscape:connector-curvature="0"
     style="opacity:0.1" />
  <path
     d="m 363.72857,93.123098 c -0.44,1 -1.05,2.36 -0.16,3 a 1.7,1.7 0 0 0 1.33,0.15 c 2.82,-0.61 4.31,-3.63 5.5,-6.26 1.19,-2.63 3,-5.6 5.83,-5.84 3.4,-0.28 6.95,3.42 9.74,1.49 0.86,-0.59 1.39,-1.63 2.34,-2.06 a 3.9,3.9 0 0 1 2.17,-0.14 15.24,15.24 0 0 1 12.45,13.05 c 0.14,1.36 0.42,3.15 1.78,3.36 a 5.64,5.64 0 0 0 1.52,-0.18 c 2.56,-0.29 4.13,2.660002 4.94,5.100002 1.12,3.34 2.25,6.86 1.6,10.32 -0.51,2.73 -2.11,5.23 -2.2,8 -0.07,2.29 0.89,4.46 1.84,6.55 0.95,2.09 2.49,4.52 4.76,4.23 1.86,-0.24 2.89,-2.22 3.78,-3.87 0.89,-1.65 2.5,-3.43 4.31,-2.91 0.81,0.24 1.65,0.92 2.38,0.51 a 1.72,1.72 0 0 0 0.69,-1.2 c 0.88,-3.85 -0.38,-8.17 1.49,-11.64 1.44,-2.68 4.36,-4.12 6.73,-6 a 19.28,19.28 0 0 0 2.61,-27.600002 c -2.54,-3 -6.19,-5.6 -6.39,-9.49 -0.16,-3 1.84,-5.71 1.87,-8.69 0.03,-2.98 -1.84,-5.48 -4,-7.45 a 25.6,25.6 0 0 0 -22.99,-6.04 c -2.13,0.51 -4.28,1.3 -6.45,1 -2.53,-0.31 -4.63,-2 -6.91,-3.15 a 17.65,17.65 0 0 0 -22,6 c -2.61,4 -3.63,9.35 -7.52,12.19 -2.56,1.87 -6.22,2.57 -7.63,5.4 -0.85,1.7 -0.61,3.72 -0.35,5.6 a 13.07,13.07 0 0 0 4.18,8 c 2.32,2.42 4.36,4.96 2.76,8.57 z"
     id="path280"
     inkscape:connector-curvature="0"
     style="fill:#512e4e" />
  <polygon
     points="561.54,779.51 525.5,486.48 536.14,486.16 543.66,485.93 571.72,726.69 571.45,780.34 "
     id="polygon282"
     style="fill:#ffceb4"
     transform="translate(-239.91143,-215.9569)" />
  <polygon
     points="536.14,486.16 535.68,487.85 571.45,780.34 561.54,779.51 525.5,486.48 "
     id="polygon284"
     style="fill:#f8bda5"
     transform="translate(-239.91143,-215.9569)" />
  <polygon
     points="583.55,777.59 576.75,779.13 571.45,780.34 571.72,726.69 603.64,488.13 604.27,488.08 619.88,487.03 "
     id="polygon286"
     style="fill:#ffceb4"
     transform="translate(-239.91143,-215.9569)" />
  <polygon
     points="576.75,779.13 571.45,780.34 571.72,726.69 603.64,488.13 604.27,488.08 610.79,489.5 576.68,778.97 "
     id="polygon288"
     style="fill:#f8bda5"
     transform="translate(-239.91143,-215.9569)" />
  <polygon
     points="699.94,735.77 665.83,486.75 673.62,485.9 676.01,485.65 702.97,665.88 702.14,684.93 "
     id="polygon290"
     style="fill:#f8bda5"
     transform="translate(-239.91143,-215.9569)" />
  <polygon
     points="673.62,485.9 676.01,485.65 702.97,665.88 702.14,684.93 674.08,488.13 "
     id="polygon292"
     style="fill:#ffceb4"
     transform="translate(-239.91143,-215.9569)" />
  <polygon
     points="713.15,697.79 708.55,697.62 698.84,697.24 702.7,484.83 710.1,485.75 713.7,486.2 712.33,576.45 "
     id="polygon294"
     style="fill:#f8bda5"
     transform="translate(-239.91143,-215.9569)" />
  <polygon
     points="710.1,485.75 713.7,486.2 712.33,576.45 713.15,697.79 708.55,697.62 "
     id="polygon296"
     style="fill:#ffceb4"
     transform="translate(-239.91143,-215.9569)" />
  <polygon
     points="397.28,484 397.83,475.75 445.15,476.02 587.41,473.82 697.19,479.87 767.08,481.25 767.91,488.95 588.23,492.26 "
     id="polygon298"
     style="fill:#f8bda5"
     transform="translate(-239.91143,-215.9569)" />
  <polygon
     points="397.83,475.75 538.15,481.8 767.08,481.25 595.94,470.79 "
     id="polygon300"
     style="fill:#ffceb4"
     transform="translate(-239.91143,-215.9569)" />
  <path
     d="m 120.48857,84.793098 -0.07,0.18 a 156.68,156.68 0 0 0 -9.3,25.590002 l -0.3,1.17 a 42.15,42.15 0 0 1 -11.790005,1.68 c -10.62,0 -15.41,-11.14 -22.84,-17.610002 -2.92,-2.53 -10.420003,1.77 -12.550003,-1.47 a 5.21,5.21 0 0 1 -0.36,-0.55 c 0.12,-0.18 0.25,-0.37 0.36,-0.55 6.58,-10.26 11.180003,-18.9 11.180003,-18.9 0,0 69.340005,-41.82 45.670005,10.46 z"
     id="path302"
     inkscape:connector-curvature="0"
     style="opacity:0.1" />
  <path
     d="m 141.40857,69.933098 a 42.37,42.37 0 1 1 -4.41,-18.82 42.41,42.41 0 0 1 4.41,18.82 z"
     id="path304"
     inkscape:connector-curvature="0"
     style="fill:#ffccd0" />
  <path
     d="m 116.08857,145.8731 c 0,0 -100.700008,-16.5 -84.200008,-19.26 2.66,-0.44 5.56,-2.09 8.58,-4.54 a 7.16,7.16 0 0 1 1.33,2.34 l 18.71,-2.2 c 0,0 23.850003,-5.14 33.380003,0.74 a 75.12,75.12 0 0 0 14.870005,6.77 c 0.67,13.12 7.33,16.15 7.33,16.15 z"
     id="path306"
     inkscape:connector-curvature="0"
     style="opacity:0.1" />
  <path
     d="m 182.28857,312.4131 a 5.64,5.64 0 0 1 -1.81,0.94 c -4.77,1.47 -10.65,23.48 -10.65,23.48 0,0 -61.12,58.68 -83.850005,56.42 a 10,10 0 0 1 -1.26,-4.69 c -0.73,-15 88.050005,-81.45 88.050005,-81.45 0,0 4.34,2.26 9.52,5.3 z"
     id="path308"
     inkscape:connector-curvature="0"
     style="opacity:0.1" />
  <path
     d="m 60.508562,123.3131 c 0,0 23.850003,-5.13 33.390003,0.74 a 78.51,78.51 0 0 0 20.540005,8.46 c 0,0 17.61,4.41 23.48,10.64 5.87,6.23 11.37,2.2 13.94,10.28 2.57,8.08 10.27,15.77 10.27,15.77 l -3.67,54.66 2.94,31.56 c 0,0 1.47,13.2 -2.2,16.14 -3.67,2.94 0.73,7.7 4,10.27 3.27,2.57 11.74,12.47 10.64,16.14 -1.1,3.67 8.81,7.71 8.81,7.71 0,0 0.36,6.23 -4.4,7.7 -4.76,1.47 -10.6,23.45 -10.6,23.45 0,0 -64.22,61.68 -85.490005,56.13 -21.270003,-5.55 -37.060003,-25.31 -37.060003,-25.31 0,0 -14.31,-64.2 -18.34,-74.48 -4.03,-10.28 -14.68,-44 -14.68,-44 0,0 -5.8699999,-38.89 -8.7999999,-46.59 -2.93000001,-7.7 -2.94000001,-48.06 5.87,-56.5 8.8099999,-8.44 16.4999999,-13.23 16.4999999,-16.16 0,-2.93 8.44,-8.81 11.74,-8.44 3.3,0.37 4.4,4 4.4,4 z"
     id="path578"
     inkscape:connector-curvature="0"
     style="fill:#ff748e" />
  <path
     d="m 324.28857,246.5831 c -10.28,18 -49.16,14.31 -49.16,14.31 0,0 -13.57,-2.94 -22,1.84 -8.43,4.78 -48.07,9.9 -48.07,9.9 0,0 -15,-3.3 -18.71,-8.08 -3.19,-4.15 -33.6,-22.19 -41.45,-26.8 l -1.56,-0.92 v 0 a 2.08,2.08 0 0 1 -0.25,-0.15 l 0.06,-0.07 32.59,-41 5.33,5.7 26.21,28 c 0,0 25.69,1.1 33,5.51 7.31,4.41 30.46,-1.47 30.46,-1.47 0,0 11.37,0 12.1,-2.56 0.73,-2.56 51.72,-2.18 41.45,15.79 z"
     id="path580"
     inkscape:connector-curvature="0"
     style="fill:#ffccd0" />
  <path
     d="m 136.99857,51.113098 a 9.48,9.48 0 0 0 -5,3.18 c -1.93,2.62 -1.68,6.2 -2.42,9.37 -1.22,5.18 -5.27,9.86 -4.5,15.12 0.28,1.85 1.09,3.92 0,5.43 -1,1.35 -3.06,1.35 -4.63,0.76 0,0 -0.08,0 -0.12,0 -4.07,-1.64 -6.3,-5.87 -9.19,-9.17 -2.89,-3.3 -8.11,-5.74 -11.460005,-2.92 -2.81,2.37 -2.31,6.72 -2.05,10.4 0.26,3.68 -0.76,8.38 -4.38,9 -1.45,0.27 -3,-0.26 -4.41,0.07 -4.55,1.06 -4.19,8.920002 -8.62,10.360002 -1.55,0.49 -3.24,0 -4.83,-0.39 a 16,16 0 0 0 -4.100003,-0.36 c -4.66,0.09 -9.53,1.5 -13.67,0.32 2.15,-3.000002 4.19,-6.090002 6.05,-9.000002 a 42.37,42.37 0 1 1 73.360008,-42.12 z"
     id="path582"
     inkscape:connector-curvature="0"
     style="opacity:0.1" />
  <path
     d="m 75.358565,101.1931 c 1.6,0.38 3.27,0.88 4.83,0.38 4.44,-1.43 4.08,-9.300002 8.61,-10.350002 1.44,-0.34 3,0.19 4.42,-0.06 3.62,-0.65 4.65,-5.36 4.38,-9 -0.27,-3.64 -0.76,-8 2.05,-10.39 3.350005,-2.82 8.570005,-0.36 11.460005,2.92 2.89,3.28 5.12,7.54 9.18,9.17 1.6,0.65 3.73,0.67 4.76,-0.72 1.03,-1.39 0.29,-3.57 0,-5.42 -0.77,-5.27 3.28,-9.94 4.5,-15.13 0.74,-3.17 0.49,-6.74 2.42,-9.36 4.08,-5.52 14.57,-2.73 18,-8.68 a 9.4,9.4 0 0 0 4.54,-0.58 c 1.38,-0.69 2.41,-2.34 1.85,-3.78 -0.43,-1.11 -1.6,-1.71 -2.59,-2.38 a 11.76,11.76 0 0 1 -5.1,-10.08 c 0.08,-1.9 0.63,-3.78 0.51,-5.67 a 8.33,8.33 0 0 0 -8.37,-7.51 c -1.25,0.05 -2.47,0.4 -3.72,0.43 -5.95,0.18 -10.93,-6.5199998 -16.72,-5.1699998 -1.24,0.2899998 -2.42,0.9499998 -3.69,0.9499998 -2.92,0 -4.73,-3.3499998 -7.52,-4.2299998 -2.22,-0.7 -4.63,0.28 -6.94,0 -2.310005,-0.28 -4.120005,-1.57 -6.070005,-2.64 -4.19,-2.28 -9.78,-3.28000001 -13.44,-0.24 a 12,12 0 0 1 -2.61,2.09 7.49,7.49 0 0 1 -3.8,0.23 35.32,35.32 0 0 0 -11.320003,0.76 4.25,4.25 0 0 0 -2.59,1.35 7.29,7.29 0 0 0 -0.82,2.6299998 c -1.12,4.33 -6.47,5.8 -10.92,6.17 a 6.12,6.12 0 0 0 -3.3,0.89 c -1.61,1.21 -1.56,3.68 -0.85,5.56 0.71,1.88 1.92,3.62 2.18,5.62 0.65,5 -4.77,8.83 -5.68,13.82 -1.24,6.89 6.4,13.66 3.8,20.17 -1.15,2.89 -4.22,5.12 -4.08,8.22 0.14,3.1 3.15,4.9 5,7.27 1.85,2.37 2.5,5.15 3.2,7.94 1.13,4.5 1.28,13.18 6.53,14.760002 5.42,1.61 12.07,-1.310002 17.910003,0.06 z"
     id="path584"
     inkscape:connector-curvature="0"
     style="fill:#ffedba" />
  <path
     d="m 77.018565,248.7831 c 6.24,8.07 28.250005,27.15 42.920005,31.92 14.67,4.77 -42.920005,-31.92 -42.920005,-31.92 z"
     id="path586"
     inkscape:connector-curvature="0"
     style="opacity:0.1" />
  <path
     d="m 80.318565,289.1431 c 2.57,1.83 14.31,23.84 26.780005,25.68 12.47,1.84 -26.780005,-25.68 -26.780005,-25.68 z"
     id="path588"
     inkscape:connector-curvature="0"
     style="opacity:0.1" />
  <path
     d="m 83.258565,270.0631 c 0.73,1.1 29.710005,26.41 40.350005,28.62 10.64,2.21 1.47,-8.81 -11.74,-13.95 -13.210005,-5.14 -28.610005,-14.67 -28.610005,-14.67 z"
     id="path590"
     inkscape:connector-curvature="0"
     style="opacity:0.1" />
  <path
     d="m 83.258565,323.9931 c 0,0 19.440005,7 32.650005,5.14 13.21,-1.86 -32.650005,-5.14 -32.650005,-5.14 z"
     id="path592"
     inkscape:connector-curvature="0"
     style="opacity:0.1" />
  <path
     d="m 105.99857,366.1831 c 0,0 19.08,-13.94 28.65,-14.67 9.57,-0.73 -28.65,14.67 -28.65,14.67 z"
     id="path594"
     inkscape:connector-curvature="0"
     style="opacity:0.1" />
  <path
     d="m 20.148562,141.2931 c 0,0 46.23,5.13 33.39,7.34 -12.84,2.21 -33.39,-7.34 -33.39,-7.34 z"
     id="path596"
     inkscape:connector-curvature="0"
     style="opacity:0.1" />
  <path
     d="m 19.788562,165.1431 c 0,0 22,0 30.08,-3.67 8.08,-3.67 -30.08,3.67 -30.08,3.67 z"
     id="path598"
     inkscape:connector-curvature="0"
     style="opacity:0.1" />
  <path
     d="m 12.818562,211.3631 c 4,-1.1 20.91,-36.32 27.51,-26.78 6.6,9.54 -27.51,26.78 -27.51,26.78 z"
     id="path600"
     inkscape:connector-curvature="0"
     style="opacity:0.1" />
  <path
     d="m 79.588565,202.1931 c 0,0 5.87,5.5 24.210005,10.64 18.34,5.14 -24.210005,-10.64 -24.210005,-10.64 z"
     id="path602"
     inkscape:connector-curvature="0"
     style="opacity:0.1" />
  <path
     d="m 188.17857,327.2931 c 0,0 10.27,5.5 2.57,17.24 -7.7,11.74 -2.57,-17.24 -2.57,-17.24 z"
     id="path604"
     inkscape:connector-curvature="0"
     style="opacity:0.1" />
  <path
     d="m 80.648565,374.2531 -0.13,-1.56 c 0.45,-5.18 0.13,1.56 0.13,1.56 z"
     id="path606"
     inkscape:connector-curvature="0"
     style="fill:#e4aab4" />
  <path
     d="m 87.648565,404.7031 -29.350003,-2.93 -5.5,-11 -30.47,-167.4 -0.71,-3.93 46.58,0.37 0.43,5.32 11.920003,147.56 c -0.06,0.75 -0.13,1.73 -0.23,3 -0.74,10.3 7.33,29.01 7.33,29.01 z"
     id="path608"
     inkscape:connector-curvature="0"
     style="fill:#e4aab4" />
  <path
     d="m 653.13857,159.4331 -0.82,0.58 c -3.13,2.13 -7.33,-5.48 -11,-4.41 -3.15,0.9 -5.75,10.64 -9.18,10.64 a 35.81,35.81 0 0 1 -15.27,-3.41 c -0.53,-1.06 -1,-2.06 -1.55,-3 -1.91,-3.54 -3.35,-5.73 -3.35,-5.73 0,0 5.19,-0.86 11.74,-1.78 3,-0.44 6.38,-0.88 9.62,-1.27 v 0 c 1.7,-0.21 3.36,-0.38 4.93,-0.55 6.42,-0.63 11.47,-0.78 11.47,0.3 0,1.08 1,3.67 2.62,7 0.22,0.53 0.51,1.08 0.79,1.63 z"
     id="path610"
     inkscape:connector-curvature="0"
     style="opacity:0.1" />
  <path
     d="m 668.04857,128.0831 a 36,36 0 1 1 -36,-35.950002 35.91,35.91 0 0 1 36,35.950002 z"
     id="path612"
     inkscape:connector-curvature="0"
     style="fill:#ffc1c7" />
  <path
     d="m 661.43857,196.7831 -10.73,1.1 c 0,0 1.1,-9.63 5.78,-12.66 3.1,-2 8.89,-5.12 12.42,-7 a 14,14 0 0 0 3.88,1.25 c -16.49,10.6 -11.35,17.31 -11.35,17.31 z"
     id="path614"
     inkscape:connector-curvature="0"
     style="fill:#ffffff" />
  <path
     d="m 541.10857,243.2831 -2.57,-0.37 c 0,0 -11.19,0.74 -22.19,2 -11,1.26 -26.6,4.59 -15.23,17.79 11.37,13.2 21.83,-2.38 21.83,-2.38 0,0 10.64,13.21 18.89,8.8 8.25,-4.41 -0.73,-25.84 -0.73,-25.84 z"
     id="path616"
     inkscape:connector-curvature="0"
     style="fill:#ffc1c7" />
  <path
     d="m 495.79857,453.6831 c 0,0 7,16.87 6.42,21.64 -0.58,4.77 23.3,-4.58 23.3,-4.58 0,0 -5.51,-12.84 -2.57,-15.59 2.94,-2.75 -27.15,-1.47 -27.15,-1.47 z"
     id="path618"
     inkscape:connector-curvature="0"
     style="fill:#ffc1c7" />
  <rect
     x="462.78857"
     y="499.17313"
     width="18.99"
     height="24.209999"
     id="rect620"
     style="fill:#ffc1c7" />
  <path
     d="m 500.01857,446.8931 c -1.89,3 -3.25,8.15 -4.21,13.44 a 134,134 0 0 0 -2,18.84 c 0,3.68 1.82,2.94 0,8.81 a 85,85 0 0 0 -3.58,14.07 c 0,0.2 -0.07,0.4 -0.1,0.61 -1.1,6.6 -2.2,8.8 -2.2,8.8 0,0 -27.88,-1.83 -33.74,-5.87 -5.86,-4.04 2.2,-8.07 2.2,-8.07 0,0 0,-0.32 0,-1 0.59,-11.21 6.31,-119.28 8.75,-130.76 a 14.63,14.63 0 0 1 3.57,-6.64 c 3.37,-3.77 8.37,-6.6 12.58,-8.48 a 59.79,59.79 0 0 1 7.69,-2.85 c 0,0 1.46,8.47 3.37,20.48 4.37,27.45 10.99,73.24 7.67,78.62 z"
     id="path622"
     inkscape:connector-curvature="0"
     style="fill:#575988" />
  <path
     d="m 492.37857,368.3231 c -2.15,3.93 -4.34,6.39 -5.93,4.47 -2.73,-3.3 -11.47,-9.44 -17.71,-13.62 6.8,-7.62 20.27,-11.33 20.27,-11.33 0,0 1.46,8.47 3.37,20.48 z"
     id="path624"
     inkscape:connector-curvature="0"
     style="fill:#ffc1c7" />
  <path
     d="m 656.44857,338.7531 c -0.27,4.08 -0.76,9 -1.61,15 a 45.94,45.94 0 0 1 -25,34.86 c 0,0 -67.5,0 -79.25,-3.3 -5.93,-1.68 -11.12,0.32 -14.79,2.69 -0.42,0.27 -0.81,0.54 -1.19,0.82 a 25.73,25.73 0 0 0 -4.55,4.19 c 0,0 -7.34,-29.72 -7.34,-31.18 0,-1.46 4,-14.68 11.37,-23.85 7.37,-9.17 50.62,-10.64 53.2,-11 1.71,-0.24 17.47,-7.11 27.88,-11.71 5.27,-2.32 9.17,-4.06 9.17,-4.06 l 17,5.4 0.63,0.19 13.58,4.32 c 0,0 1.76,4.05 0.9,17.63 z"
     id="path626"
     inkscape:connector-curvature="0"
     style="fill:#575988" />
  <path
     d="m 641.99857,316.7431 c -3.24,1.35 -8.37,3.42 -14.32,5.56 -12.94,4.7 -29.77,9.84 -39.61,9 -17.61,-1.47 -37.79,2.56 -37.79,2.56 a 66.35,66.35 0 0 0 -17.63,11.41 c -9.17,8.07 -1.1,10.63 2.94,20.18 1.65,3.91 1.27,13.06 0.24,22.5 -0.42,0.27 -0.81,0.54 -1.19,0.82 a 25.73,25.73 0 0 0 -4.55,4.19 c 0,0 -7.34,-29.72 -7.34,-31.18 0,-1.46 4,-14.68 11.37,-23.85 7.37,-9.17 50.62,-10.64 53.2,-11 1.71,-0.24 17.47,-7.11 27.88,-11.71 5.27,-2.32 9.17,-4.06 9.17,-4.06 l 17,5.4 z"
     id="path628"
     inkscape:connector-curvature="0"
     style="opacity:0.1" />
  <path
     d="m 500.01857,446.8931 c -1.89,3 -3.25,8.15 -4.21,13.44 a 9.23,9.23 0 0 1 -2,-1.33 c -3.37,-2.85 -3.08,-8.26 -2.61,-11.71 0.19,-1.43 0.41,-2.53 0.41,-3 0,-1.48 1.46,-14.69 -1.48,-19.45 -2.94,-4.76 -3.66,-23.48 -3.66,-23.48 0,0 -4.66,-26.84 -5.13,-50.71 a 59.79,59.79 0 0 1 7.69,-2.85 c 0,0 1.46,8.47 3.37,20.48 4.32,27.44 10.94,73.23 7.62,78.61 z"
     id="path630"
     inkscape:connector-curvature="0"
     style="opacity:0.1" />
  <path
     d="m 644.56857,315.1831 c 0,0 -1.17,0.52 -3.2,1.37 -3.2,1.33 -8.54,3.5 -14.79,5.75 -12.94,4.7 -29.78,9.84 -39.61,9 -17.61,-1.47 -37.79,2.56 -37.79,2.56 a 66.35,66.35 0 0 0 -17.61,11.38 c -9.17,8.07 -1.1,10.63 2.94,20.18 1.69,4 1.24,13.59 0.15,23.32 -1.49,13.33 -4.19,26.94 -4.19,26.94 0,0 -1.1,3.67 -0.36,5.87 0.74,2.2 0.72,19.07 0.72,19.07 a 10,10 0 0 0 -1.57,4.81 6.31,6.31 0 0 0 1.21,4 c 2.94,4 0.74,14.68 0.74,14.68 0,0 -6.24,1.1 -16.89,-1.48 -10.65,-2.58 -14.67,0.38 -19.43,-3.66 -3.37,-2.85 -3.08,-8.26 -2.61,-11.71 0.19,-1.43 0.41,-2.53 0.41,-3 0,-1.48 1.46,-14.69 -1.48,-19.45 -2.94,-4.76 -3.66,-23.48 -3.66,-23.48 0,0 -11.68,-67.21 0.07,-83.53 a 9.58,9.58 0 0 1 0.66,-0.85 c 6.55,-7.5 20.19,-8.86 32.93,-8.12 a 137.64,137.64 0 0 1 27.23,4.45 c 7.34,2.21 9.55,1.1 13.21,-0.37 2.61,-1 2.82,-6.15 2.71,-9 0,-0.3 0,-0.58 0,-0.81 0,-0.72 -0.1,-1.18 -0.1,-1.18 l 3.25,-1.77 13.62,-7.39 z"
     id="path632"
     inkscape:connector-curvature="0"
     style="fill:#575988" />
  <path
     d="m 652.31857,157.8031 a 72.3,72.3 0 0 0 8.72,13.71 5.52,5.52 0 0 1 -3.54,0.09 c -1.2,-0.47 -2.07,-1.54 -3.23,-2.09 -3,-1.41 -6.34,0.58 -9.35,-1.28 -2.35,-1.46 -2.85,-3.3 -2.92,-5.61 0,-0.31 0,-0.63 0,-1 0,-3.21 -0.34,-9.58 -3.74,-11.16 a 5.25,5.25 0 0 0 -4.14,0.14 4.94,4.94 0 0 0 -0.79,0.41 v 0 c -2.27,1.34 -3.91,4.19 -6.49,4 a 3.88,3.88 0 0 1 -3.13,-2.69 17.9,17.9 0 0 1 -1.06,-4.49 c -0.77,-5.87 -3,-11.44 -5.19,-16.94 -0.42,-1.05 -1,-2.26 -2.18,-2.36 -1.82,-0.15 -2.27,2.68 -1.27,4.21 1,1.53 2.73,2.7 3,4.51 0.42,3 -4.07,4.75 -6.52,3 -2.45,-1.75 -2.89,-5.31 -2.37,-8.3 0.52,-2.99 1.8,-5.84 2,-8.88 0.2,-3.04 -1.17,-6.51 -4.09,-7.36 -2.55,-0.76 -5.24,0.76 -7.89,0.8 a 36,36 0 1 1 54.27,41.3 z"
     id="path634"
     inkscape:connector-curvature="0"
     style="opacity:0.1" />
  <path
     d="m 635.19857,150.6831 c -2.72,1 -4.42,4.63 -7.31,4.36 -2.89,-0.27 -3.8,-4.19 -4.19,-7.18 -0.77,-5.87 -3,-11.44 -5.19,-16.94 -0.42,-1.05 -1.05,-2.26 -2.18,-2.36 -1.82,-0.15 -2.27,2.68 -1.27,4.21 1,1.53 2.74,2.7 3,4.51 0.43,3 -4.06,4.75 -6.51,3 -2.45,-1.75 -2.9,-5.31 -2.38,-8.3 0.52,-2.99 1.79,-5.85 2,-8.88 0.21,-3.03 -1.18,-6.51 -4.09,-7.37 -2.91,-0.86 -6,1.23 -9,0.73 a 5.57,5.57 0 0 1 -3.85,-7.66 c 1.29,-2.5 4.61,-4.5 3.75,-7.17 -1.08,-3.330002 -6.76,-1.870002 -9,-4.590002 -1.75,-2.13 -0.15,-5.48 2.13,-7 2.28,-1.52 5.13,-2.16 7.31,-3.86 4.1,-3.19 4.8,-9.34 8.68,-12.81 4.41,-4 11.21,-3.13 16.75,-5.19 5.32,-2 10.1,-6.77 15.68,-5.77 1.35,0.24 2.62,0.81 4,0.94 2.83,0.26 5.41,-1.44 8,-2.51 a 19.05,19.05 0 0 1 15.72,0.73 c -0.52,3.58 3.2,6.75 6.81,6.61 2.61,-0.09 6.17,-1 7.08,1.48 0.43,1.13 -0.11,2.45 0.29,3.6 0.68,2 3.46,2.14 5.26,3.28 4.1,2.6 2.19,9.67 5.74,13 1.56,1.45 3.81,1.8 5.75,2.67 6.41,2.84 8.73,10.590002 10.32,17.420002 a 8.55,8.55 0 0 1 0.27,4.07 c -0.53,2 -2.4,3.29 -3.44,5.06 -2.48,4.22 0.17,9.8 -1.41,14.43 -1.58,4.63 -6.79,7.26 -7.51,12 -0.25,1.6 0.08,3.25 -0.18,4.85 -0.7,4.34 -5.27,6.84 -9.48,8.12 -1.18,0.35 -2.52,0.78 -3.05,1.9 -0.23,0.5 -0.27,1.07 -0.46,1.59 -0.47,1.23 -1.76,1.91 -3,2.47 q -8.22,3.88 -16.76,7.07 c -1.58,0.59 -3.35,1.17 -4.93,0.56 -1.2,-0.47 -2.06,-1.55 -3.23,-2.09 -3,-1.42 -6.34,0.58 -9.34,-1.28 -2.68,-1.66 -3,-3.81 -3,-6.58 0.08,-4.29 -0.47,-13.94 -7.78,-11.12 z"
     id="path636"
     inkscape:connector-curvature="0"
     style="fill:#b97482" />
  <path
     d="m 490.20857,502.0531 c 0,0.2 -0.07,0.4 -0.1,0.61 -1.1,6.6 -2.2,8.8 -2.2,8.8 0,0 -27.88,-1.83 -33.74,-5.87 -5.86,-4.04 2.2,-8.07 2.2,-8.07 0,0 0,-0.32 0,-1 9.65,2.47 26.28,6.12 33.84,5.53 z"
     id="path638"
     inkscape:connector-curvature="0"
     style="fill:#575988" />
  <path
     d="m 490.20857,502.0531 c 0,0.2 -0.07,0.4 -0.1,0.61 -1.1,6.6 -2.2,8.8 -2.2,8.8 0,0 -27.88,-1.83 -33.74,-5.87 -5.86,-4.04 2.2,-8.07 2.2,-8.07 0,0 0,-0.32 0,-1 9.65,2.47 26.28,6.12 33.84,5.53 z"
     id="path640"
     inkscape:connector-curvature="0"
     style="opacity:0.1" />
  <path
     d="m 485.89857,508.7131 c 0,0 -32.29,2.2 -33.57,1.65 -1.28,-0.55 -1.29,17.06 -1.29,17.06 0,0 -7.15,14.31 -8.07,17.79 -0.92,3.48 -8.07,12.11 -8.07,12.11 0,0 -10.25,7.52 4.75,10.45 15,2.93 31.55,-0.91 31.55,-0.91 0,0 11,-19.08 11.92,-18 0.92,1.08 0,10.09 0,10.09 l 6.42,-1.65 c 0,0 -1.1,-11.92 1.47,-18.34 2.57,-6.42 -5.11,-30.25 -5.11,-30.25 z"
     id="path642"
     inkscape:connector-curvature="0"
     style="fill:#d3878a" />
  <path
     d="m 531.20857,463.0431 c 0,0 -6.24,1.1 -16.89,-1.48 -10.65,-2.58 -14.67,0.38 -19.43,-3.66 -3.37,-2.85 -3.08,-8.26 -2.61,-11.71 4.66,-1 11.88,-2.53 17.47,-3.34 5.59,-0.81 13.63,0.26 19.51,1.51 a 6.27,6.27 0 0 0 1.21,4 c 2.94,4.03 0.74,14.68 0.74,14.68 z"
     id="path644"
     inkscape:connector-curvature="0"
     style="opacity:0.1" />
  <path
     d="m 531.20857,464.1431 c 0,0 -6.24,1.1 -16.89,-1.48 -10.65,-2.58 -14.67,0.38 -19.43,-3.66 -3.37,-2.85 -3.08,-8.26 -2.61,-11.71 4.66,-1 11.88,-2.53 17.47,-3.34 5.59,-0.81 13.63,0.26 19.51,1.51 a 6.31,6.31 0 0 0 1.21,4 c 2.94,4.05 0.74,14.68 0.74,14.68 z"
     id="path646"
     inkscape:connector-curvature="0"
     style="fill:#575988" />
  <path
     d="m 531.20857,464.1431 c 0,0 -6.24,1.1 -16.89,-1.48 -10.65,-2.58 -14.67,0.38 -19.43,-3.66 -3.37,-2.85 -3.08,-8.26 -2.61,-11.71 4.66,-1 11.88,-2.53 17.47,-3.34 5.59,-0.81 13.63,0.26 19.51,1.51 a 6.31,6.31 0 0 0 1.21,4 c 2.94,4.05 0.74,14.68 0.74,14.68 z"
     id="path648"
     inkscape:connector-curvature="0"
     style="opacity:0.1" />
  <path
     d="m 546.97857,516.2331 -10.82,2.75 -3.12,-12.84 c 0,0 -2.72,5.16 -7.53,12.31 -0.64,0.94 -1.3,1.92 -2,2.92 -5.52,7.87 -24.08,5.95 -30.45,1.36 a 6.66,6.66 0 0 1 -1.46,-1.36 c -4.23,-5.5 2.2,-10.83 5.31,-13.76 3.11,-2.93 1.47,-22.38 1.47,-22.38 0,0 -1.47,-8.62 -0.37,-12.66 1.1,-4.04 28.81,-5.5 28.81,-5.5 0,0 5.67,14.85 8.8,19.44 3.13,4.59 7,10.27 6.23,14.31 -0.77,4.04 5.13,15.41 5.13,15.41 z"
     id="path650"
     inkscape:connector-curvature="0"
     style="fill:#d3878a" />
  <path
     d="m 532.64857,325.6431 c -4.73,6 -35.51,1.47 -45,-7.77 a 9.58,9.58 0 0 1 0.66,-0.85 c 6.55,-7.5 20.19,-8.86 32.93,-8.12 5.83,4.19 15.17,11.96 11.41,16.74 z"
     id="path652"
     inkscape:connector-curvature="0"
     style="fill:#ffc1c7" />
  <path
     d="m 502.95857,330.0431 c 0,0 -5.31,-7.53 -10.09,-3.85 -4.78,3.68 -6.24,-6.42 -6.24,-6.42 0,0 2.57,-1.83 8.07,0.92 5.5,2.75 11.74,7.52 11,8.44 -0.74,0.92 -2.74,0.91 -2.74,0.91 z"
     id="path654"
     inkscape:connector-curvature="0"
     style="opacity:0.1" />
  <path
     d="m 502.95857,328.9431 c 0,0 -5.32,-7.52 -10.09,-3.85 -4.77,3.67 -6.24,-6.42 -6.24,-6.42 0,0 2.57,-1.83 8.07,0.92 5.5,2.75 11.74,7.52 11,8.44 -0.74,0.92 -2.74,0.91 -2.74,0.91 z"
     id="path656"
     inkscape:connector-curvature="0"
     style="fill:#575988" />
  <path
     d="m 602.37857,330.0431 c 0,0 27.15,12.47 21.09,17.47 -6.06,5 -21.09,-17.47 -21.09,-17.47 z"
     id="path658"
     inkscape:connector-curvature="0"
     style="opacity:0.1" />
  <path
     d="m 492.86857,415.8931 c 0,0 17.24,2 21.09,4.59 a 19.47,19.47 0 0 0 9.91,3.48 c 2.2,0 -23.3,-14.31 -31,-8.07 z"
     id="path660"
     inkscape:connector-curvature="0"
     style="opacity:0.1" />
  <path
     d="m 513.58857,405.8031 c 0,0 -6.6,4.59 0.92,6.42 7.52,1.83 -0.92,-6.42 -0.92,-6.42 z"
     id="path662"
     inkscape:connector-curvature="0"
     style="opacity:0.1" />
  <path
     d="m 476.71857,466.8931 c 0,0 9.73,12.1 13.21,8.8 3.48,-3.3 -13.21,-8.8 -13.21,-8.8 z"
     id="path664"
     inkscape:connector-curvature="0"
     style="opacity:0.1" />
  <path
     d="m 470.48857,490.7331 c 0.73,0 3.12,-0.36 7.89,2.94 4.77,3.3 5.13,-2.57 3.3,-5 -1.83,-2.43 -11.19,2.06 -11.19,2.06 z"
     id="path666"
     inkscape:connector-curvature="0"
     style="opacity:0.1" />
  <path
     d="m 459.47857,220.4431 c 1.65,0.55 11.28,3 13.21,8.81 1.93,5.81 -13.21,-8.81 -13.21,-8.81 z"
     id="path668"
     inkscape:connector-curvature="0"
     style="opacity:0.1" />
  <path
     d="m 68.648562,225.1231 -0.79,-0.19 c 0,0 -28.1,-6.31 -45.51,-1.57 l -0.71,-3.93 46.58,0.37 z"
     id="path670"
     inkscape:connector-curvature="0"
     style="opacity:0.1" />
  <path
     d="m 43.648562,212.8331 c 0,0 70.440008,0.37 95.000008,48.79 24.56,48.42 30.09,140.89 30.09,140.89 0,0 4,13.21 -1.84,13.57 -5.84,0.36 -8.44,-12.1 -8.44,-12.1 0,0 2.21,-9.17 0.37,-13.21 -1.84,-4.04 -24.18,-116.26 -24.18,-116.26 0,0 -2.57,-35.22 -66.770008,-50.63 0,0 -75.2099999,-16.87 -55.77,25.32 0,0 1.1,5.87 -2.9299999,4.77 -4.03,-1.1 -8.81000001,-12.11 -5.5,-26 3.31,-13.89 39.9699999,-15.14 39.9699999,-15.14 z"
     id="path672"
     inkscape:connector-curvature="0"
     style="fill:#e4aab4" />
  <path
     d="m 181.03857,201.2931 -0.2,0.17 c -5,4 -23.49,35.42 -35.95,36.29 a 4.51,4.51 0 0 1 -0.73,0 c 0,0 -0.29,-0.35 -0.83,-0.95 v 0 a 0.93,0.93 0 0 0 -0.19,-0.22 l 32.59,-41 z"
     id="path674"
     inkscape:connector-curvature="0"
     style="opacity:0.1" />
  <path
     d="m 144.51857,162.2031 16.51,7 c 0,0 8.07,8.07 7.71,15.41 -0.36,7.34 4,1.83 4,1.83 0,0 2.94,1.1 2.94,4 0,2.9 8.07,5.87 2.93,9.9 -5.14,4.03 -24.21,36.69 -36.68,36.32 a 251.39,251.39 0 0 0 -23.85,-23.84 c -12.81,-11 -24.550005,-67.5 26.44,-50.62 z"
     id="path676"
     inkscape:connector-curvature="0"
     style="opacity:0.1" />
  <path
     d="m 145.64857,162.2031 16.51,7 c 0,0 8.07,8.07 7.71,15.41 -0.36,7.34 4,1.83 4,1.83 0,0 2.94,1.1 2.94,4 0,2.9 8.07,5.87 2.93,9.9 -5.14,4.03 -24.21,36.69 -36.68,36.32 a 251.39,251.39 0 0 0 -23.85,-23.84 c -12.84,-11 -24.560005,-67.5 26.44,-50.62 z"
     id="path678"
     inkscape:connector-curvature="0"
     style="fill:#ff748e" />
  <path
     d="m 604.20857,223.1031 -17.06,30.41 -11.81,6.09 c -0.29,-3.2 -0.48,-5.36 -0.48,-5.36 0,0 -7.71,-18 12.11,-31.55 17.37,-11.91 8.22,-21.56 5.71,-23.74 l 0.53,-0.47 4,-0.55 z"
     id="path680"
     inkscape:connector-curvature="0"
     style="opacity:0.1" />
  <path
     d="m 718.10857,209.6831 c -2.7,6 -25.85,22.23 -25.85,22.23 a 1.09,1.09 0 0 1 0,0.12 l -1.09,-1.22 22,-25.32 4,2.57 z"
     id="path682"
     inkscape:connector-curvature="0"
     style="opacity:0.1" />
  <path
     d="m 656.44857,338.7531 a 56.11,56.11 0 0 1 -9.68,0.28 144,144 0 0 0 -20.19,-16.73 c -3.46,-2.39 -7.27,-4.81 -11.36,-7.09 -14.49,-8 -32.5,-14.31 -50.86,-11.25 -0.41,0.06 -0.83,0.14 -1.23,0.22 0,0 0.45,-0.37 1.2,-1 0.75,-0.63 1.9,-1.69 3.15,-2.95 l 13.62,-7.39 63.47,22.37 c 0,0 -1.17,0.52 -3.2,1.37 l 14.21,4.51 c 0,0 1.73,4.08 0.87,17.66 z"
     id="path684"
     inkscape:connector-curvature="0"
     style="opacity:0.1" />
  <path
     d="m 636.12857,191.9231 c 0,0 49.16,4.77 71.54,2.2 0,0 11,8.44 9.54,13.94 -1.46,5.5 -26,22.74 -26,22.74 0,0 -1.83,42.93 -11.74,53.2 -9.91,10.27 -18.76,36.69 -14.36,45.51 4.4,8.82 -17.24,7.34 -17.24,7.34 0,0 -41.09,-42.92 -83.65,-34.85 0,0 15.41,-12.48 14.31,-21.65 -1.1,-9.17 -2.57,-26.05 -2.57,-26.05 0,0 -7.7,-18 12.11,-31.55 19.81,-13.55 5.14,-24.24 5.14,-24.24 0,0 -0.74,-3.3 7.7,-4.4 a 86.81,86.81 0 0 0 12.11,-2.2 c 0,0 8.07,-7.34 11.74,-5.87 3.67,1.47 11.37,5.88 11.37,5.88 z"
     id="path686"
     inkscape:connector-curvature="0"
     style="fill:#fbb12c" />
  <path
     d="m 692.25857,225.5131 c 0,0 5.87,11.55 -0.55,17.6 a 77.06,77.06 0 0 0 -6.89,8.35 250.28,250.28 0 0 0 -29.57,51.4 c -13.55,31.58 -36.91,85.26 -40.4,88.1 -5,4 -5.32,12.29 -0.37,12.48 4.95,0.19 7.89,-6.61 7.89,-6.61 0,0 4.95,-14.12 8.07,-19.81 3.12,-5.69 35.59,-80.16 35.59,-80.16 0,0 12.11,-31.92 25.68,-39.25 0,0 11.74,-19.45 9.72,-28.07 -2.02,-8.62 -9.17,-4.03 -9.17,-4.03 z"
     id="path688"
     inkscape:connector-curvature="0"
     style="opacity:0.1" />
  <path
     d="m 692.25857,224.3831 c 0,0 5.87,11.56 -0.55,17.61 a 77.06,77.06 0 0 0 -6.89,8.35 250.28,250.28 0 0 0 -29.57,51.4 c -13.55,31.58 -36.91,85.26 -40.4,88.1 -5,4 -5.32,12.29 -0.37,12.48 4.95,0.19 7.89,-6.61 7.89,-6.61 0,0 4.95,-14.12 8.07,-19.81 3.12,-5.69 35.59,-80.16 35.59,-80.16 0,0 12.11,-31.92 25.68,-39.25 0,0 11.74,-19.45 9.72,-28.07 -2.02,-8.62 -9.17,-4.04 -9.17,-4.04 z"
     id="path690"
     inkscape:connector-curvature="0"
     style="fill:#e4aab4" />
  <path
     d="m 742.20857,263.0931 c 1.17,6.6 1.11,13.57 -1.71,19.63 0,0 -15.59,0.73 -31.18,-21.1 l -9.36,-22.93 c 0,0 -10.45,-17.79 -16.69,-16.87 -6.24,0.92 -11,32.1 -25.86,29.16 -14.86,-2.94 -7,-40.35 12.65,-44.21 l 7.58,-1.93 a 18.29,18.29 0 0 1 15.91,3.37 c 3.64,2.87 8.56,6.68 14.49,11 4.86,3.58 9.47,7.08 13.35,10.08 a 55,55 0 0 1 20.82,33.8 z"
     id="path692"
     inkscape:connector-curvature="0"
     style="fill:#ffc1c7" />
  <path
     d="m 579.71857,261.4431 c 0,0 7.43,9.08 19.54,11 12.11,1.92 19,-1.92 29.17,2.21 10.17,4.13 -48.71,-13.21 -48.71,-13.21 z"
     id="path694"
     inkscape:connector-curvature="0"
     style="opacity:0.1" />
  <path
     d="m 680.97857,244.3831 c 0,0 -22.84,19.53 -22,24.76 0.84,5.23 22,-24.76 22,-24.76 z"
     id="path696"
     inkscape:connector-curvature="0"
     style="opacity:0.1" />
  <g
     id="g710"
     style="opacity:0.1"
     transform="translate(-239.91143,-215.9569)">
    <path
       d="m 895.79,401.7 a 4.65,4.65 0 0 1 -5.44,0.36 c -2.14,-1.56 -2.75,-4.44 -2.52,-7.14 -0.23,0.83 -0.44,1.66 -0.59,2.51 -0.52,3 -0.07,6.51 2.38,8.3 2.45,1.79 6.94,0 6.52,-3 a 4,4 0 0 0 -0.35,-1.03 z"
       transform="translate(-37.44,-49.53)"
       id="path698"
       inkscape:connector-curvature="0" />
    <path
       d="m 889.16,389.07 a 20,20 0 0 0 0.79,-4.19 c 0.18,-3 -1.18,-6.51 -4.09,-7.37 -2.91,-0.86 -6,1.24 -9,0.73 a 5.53,5.53 0 0 1 -4.26,-4.54 4.37,4.37 0 0 0 -0.32,0.55 5.56,5.56 0 0 0 3.84,7.66 c 3,0.5 6.1,-1.59 9,-0.73 2.9,0.86 4.27,4.34 4.09,7.37 0,0.18 -0.03,0.35 -0.05,0.52 z"
       transform="translate(-37.44,-49.53)"
       id="path700"
       inkscape:connector-curvature="0" />
    <path
       d="m 875.88,366.79 a 3.7,3.7 0 0 0 0.87,-3.38 c -1.08,-3.33 -6.77,-1.87 -9,-4.58 a 3.44,3.44 0 0 1 -0.62,-1.22 c -1,1.59 -1.25,3.49 -0.11,4.88 2.16,2.63 7.54,1.36 8.86,4.3 z"
       transform="translate(-37.44,-49.53)"
       id="path702"
       inkscape:connector-curvature="0" />
    <path
       d="m 965.57,419.86 c -1.18,0.35 -2.52,0.78 -3.05,1.9 -0.24,0.5 -0.27,1.07 -0.47,1.59 -0.47,1.23 -1.75,1.91 -2.94,2.47 -5.48,2.59 -11.08,4.95 -16.76,7.07 -1.59,0.59 -3.35,1.17 -4.93,0.56 -1.2,-0.47 -2.07,-1.55 -3.23,-2.09 -3,-1.41 -6.34,0.58 -9.34,-1.28 -2.69,-1.66 -3,-3.8 -3,-6.57 0,-4.2 -0.57,-13.83 -7.87,-11 -2.72,1 -4.42,4.63 -7.32,4.36 -2.9,-0.27 -3.79,-4.19 -4.18,-7.18 -0.77,-5.87 -3,-11.44 -5.19,-16.94 -0.42,-1.05 -1.05,-2.26 -2.18,-2.36 -1.67,-0.14 -2.18,2.24 -1.48,3.81 a 1.4,1.4 0 0 1 0.75,-0.14 c 1.12,0.1 1.75,1.31 2.17,2.36 2.21,5.5 4.43,11.07 5.19,16.94 0.39,3 1.19,6.9 4.19,7.18 3,0.28 4.6,-3.32 7.31,-4.36 7.31,-2.82 7.87,6.81 7.88,11 0,2.77 0.27,4.92 3,6.58 3,1.86 6.33,-0.14 9.35,1.28 1.16,0.54 2,1.62 3.22,2.09 1.58,0.61 3.35,0 4.94,-0.56 q 8.52,-3.18 16.75,-7.07 c 1.19,-0.56 2.48,-1.24 3,-2.47 0.2,-0.52 0.23,-1.09 0.47,-1.59 0.52,-1.12 1.86,-1.55 3.05,-1.9 4.2,-1.28 8.78,-3.78 9.47,-8.12 a 9.7,9.7 0 0 0 0.1,-1.71 c -1.6,3.14 -5.38,5.08 -8.9,6.15 z"
       transform="translate(-37.44,-49.53)"
       id="path704"
       inkscape:connector-curvature="0" />
    <path
       d="m 984.15,380.49 a 9.07,9.07 0 0 0 -1.11,4.42 6.61,6.61 0 0 1 0.38,-0.75 c 1,-1.77 2.9,-3.08 3.43,-5.06 a 5.82,5.82 0 0 0 0.08,-2.24 c -0.79,1.27 -2.01,2.33 -2.78,3.63 z"
       transform="translate(-37.44,-49.53)"
       id="path706"
       inkscape:connector-curvature="0" />
    <path
       d="m 975.22,406.89 a 10.79,10.79 0 0 0 -0.09,1.61 c 1.63,-3.54 5.57,-6.1 6.87,-9.91 a 10.69,10.69 0 0 0 0.52,-3.13 c -1.75,4.19 -6.6,6.91 -7.3,11.43 z"
       transform="translate(-37.44,-49.53)"
       id="path708"
       inkscape:connector-curvature="0" />
  </g>
  <path
     d="m 537.43857,496.7931 a 109,109 0 0 0 -11.74,9 c -4.77,4.41 -16.69,8.07 -16.69,8.07 z"
     id="path712"
     inkscape:connector-curvature="0"
     style="opacity:0.1" />
  <path
     d="m 478.73857,543.1931 c 0,0 -22.56,20.18 -26.23,19.82 -3.67,-0.36 26.23,-19.82 26.23,-19.82 z"
     id="path714"
     inkscape:connector-curvature="0"
     style="opacity:0.1" />
  <path
     d="m 525.50857,518.4531 c -0.64,0.94 -1.3,1.92 -2,2.92 -5.52,7.87 -24.08,5.95 -30.45,1.36 5.68,-1.92 23.22,-7.33 32.45,-4.28 z"
     id="path716"
     inkscape:connector-curvature="0"
     style="opacity:0.1" />
  <g
     id="g728"
     style="opacity:0.1"
     transform="translate(-239.91143,-215.9569)">
    <path
       d="m 711.31,331.85 a 14.54,14.54 0 0 0 0.59,-2.29 14.54,14.54 0 0 0 -0.59,2.29 z"
       transform="translate(-37.44,-49.53)"
       id="path718"
       inkscape:connector-curvature="0" />
    <path
       d="m 641.64,356.23 a 8.9,8.9 0 0 1 0.55,-1.47 c 1.59,-3.59 -0.45,-6.15 -2.82,-8.56 a 13.15,13.15 0 0 1 -4.18,-8 21.78,21.78 0 0 1 -0.24,-2.55 5.44,5.44 0 0 0 -0.51,0.8 c -0.85,1.7 -0.61,3.72 -0.35,5.6 a 13.07,13.07 0 0 0 4.18,8 c 1.81,1.84 3.42,3.77 3.37,6.18 z"
       transform="translate(-37.44,-49.53)"
       id="path720"
       inkscape:connector-curvature="0" />
    <path
       d="m 703.71,388.76 c -1.81,-0.52 -3.41,1.26 -4.31,2.91 -0.9,1.65 -1.92,3.63 -3.78,3.87 -2.27,0.29 -3.82,-2.15 -4.76,-4.23 C 689.92,389.23 689,387 689,384.76 a 7.34,7.34 0 0 1 0.08,-0.82 14.8,14.8 0 0 0 -1.18,4.67 c -0.07,2.29 0.89,4.46 1.84,6.55 0.95,2.09 2.49,4.52 4.76,4.23 1.86,-0.24 2.89,-2.22 3.78,-3.87 0.89,-1.65 2.5,-3.43 4.31,-2.91 0.81,0.24 1.65,0.92 2.38,0.51 a 1.72,1.72 0 0 0 0.69,-1.2 14.45,14.45 0 0 0 0.33,-2.62 c -0.7,0.32 -1.5,-0.3 -2.28,-0.54 z"
       transform="translate(-37.44,-49.53)"
       id="path722"
       inkscape:connector-curvature="0" />
    <path
       d="m 715,370.41 c -2.37,1.9 -5.29,3.34 -6.73,6 a 9.48,9.48 0 0 0 -1,3.72 c 1.46,-2.59 4.32,-4 6.65,-5.88 a 19.55,19.55 0 0 0 6.94,-11.77 19.5,19.5 0 0 1 -5.86,7.93 z"
       transform="translate(-37.44,-49.53)"
       id="path724"
       inkscape:connector-curvature="0" />
    <path
       d="m 690.18,380.14 a 21.83,21.83 0 0 0 1,-3.4 c 0.65,-3.45 -0.48,-7 -1.59,-10.31 -0.82,-2.44 -2.39,-5.4 -5,-5.1 a 5.64,5.64 0 0 1 -1.52,0.18 c -1.35,-0.22 -1.64,-2 -1.78,-3.36 a 15.24,15.24 0 0 0 -12.44,-13 3.93,3.93 0 0 0 -2.18,0.14 c -1,0.43 -1.48,1.46 -2.34,2.06 -2.79,1.93 -6.34,-1.77 -9.74,-1.49 -2.88,0.24 -4.64,3.2 -5.83,5.83 -1.19,2.63 -2.68,5.65 -5.5,6.27 a 1.66,1.66 0 0 1 -1.33,-0.16 1,1 0 0 1 -0.44,-0.82 6,6 0 0 1 -0.5,1.68 c -0.44,1 -1.05,2.36 -0.16,3 a 1.7,1.7 0 0 0 1.33,0.15 c 2.82,-0.61 4.31,-3.63 5.5,-6.26 1.19,-2.63 3,-5.6 5.83,-5.84 3.4,-0.28 6.95,3.42 9.74,1.49 0.86,-0.59 1.39,-1.63 2.34,-2.06 a 3.9,3.9 0 0 1 2.17,-0.14 15.24,15.24 0 0 1 12.54,13 c 0.14,1.36 0.42,3.15 1.78,3.36 a 5.64,5.64 0 0 0 1.52,-0.18 c 2.56,-0.29 4.13,2.66 4.94,5.1 1.07,3.19 2.13,6.55 1.66,9.86 z"
       transform="translate(-37.44,-49.53)"
       id="path726"
       inkscape:connector-curvature="0" />
  </g>
  <path
     d="m 431.07857,230.0831 c 0,0 -14,4.26 -20.36,4.26 -6.36,0 -31.07,-0.13 -31.07,-0.13 0,0 -64.66,-21.6 -45.26,8 19.4,29.6 50.07,13.07 50.07,13.07 l 5.49,1.23 c 3,0.69 61.49,0.14 63.42,-2.2 1.93,-2.34 -22.29,-24.23 -22.29,-24.23 z"
     id="path730"
     inkscape:connector-curvature="0"
     style="fill:#cf6f80" />
  <path
     d="m 471.28857,256.0231 c -8.81,0.81 -26.12,1 -26.12,1 0,0 -12.93,-25.59 -23.93,-24.77 0,0 10.18,-11.55 14.3,-10.18 0.7,0.23 1.13,-0.27 1.33,-1.26 10.79,3.29 31.33,11.34 33.34,25.48 0.54,3.8 0.88,7.01 1.08,9.73 z"
     id="path732"
     inkscape:connector-curvature="0"
     style="opacity:0.1" />
  <path
     d="m 472.38857,256.0231 c -8.81,0.81 -26.12,1 -26.12,1 0,0 -12.93,-25.59 -23.93,-24.77 0,0 10.18,-11.55 14.3,-10.18 0.7,0.23 1.13,-0.27 1.34,-1.26 10.78,3.29 31.32,11.34 33.33,25.48 0.54,3.8 0.88,7.01 1.08,9.73 z"
     id="path734"
     inkscape:connector-curvature="0"
     style="fill:#575a89" />
  <path
     d="m 472.38857,256.0231 c -8.81,0.81 -26.12,1 -26.12,1 0,0 -12.93,-25.59 -23.93,-24.77 0,0 10.18,-11.55 14.3,-10.18 0.7,0.23 1.13,-0.27 1.34,-1.26 10.78,3.29 31.32,11.34 33.33,25.48 0.54,3.8 0.88,7.01 1.08,9.73 z"
     id="path736"
     inkscape:connector-curvature="0"
     style="opacity:0.1" />
  <path
     d="m 395.09857,329.6831 c 0,0 24.76,-6.06 28.61,-2.76 3.85,3.3 -28.61,2.76 -28.61,2.76 z"
     id="path738"
     inkscape:connector-curvature="0"
     style="opacity:0.1" />
  <path
     d="m 324.10857,353.3431 c 0,0 10.45,6 11.55,11 1.1,5 -11.55,-11 -11.55,-11 z"
     id="path740"
     inkscape:connector-curvature="0"
     style="opacity:0.1" />
  <g
     id="g752"
     style="opacity:0.1"
     transform="translate(-239.91143,-215.9569)">
    <path
       d="m 425.54,290.44 a 11.37,11.37 0 0 0 0.58,4 q 0,-0.63 0,-1.26 c 0.09,-1.9 0.64,-3.78 0.52,-5.68 a 7.74,7.74 0 0 0 -0.54,-2.29 c -0.01,1.79 -0.48,3.48 -0.56,5.23 z"
       transform="translate(-37.44,-49.53)"
       id="path742"
       inkscape:connector-curvature="0" />
    <path
       d="m 323.92,288.81 c 0.49,1.28 1.2,2.49 1.68,3.77 a 5.62,5.62 0 0 0 -0.05,-0.91 c -0.24,-1.91 -1.37,-3.59 -2.08,-5.39 a 7.21,7.21 0 0 0 0.45,2.53 z"
       transform="translate(-37.44,-49.53)"
       id="path744"
       inkscape:connector-curvature="0" />
    <path
       d="m 433.79,305.65 a 2.74,2.74 0 0 0 -0.61,-0.92 3.74,3.74 0 0 1 -1.8,1.94 9.48,9.48 0 0 1 -4.53,0.59 c -3.43,5.94 -13.92,3.16 -18,8.68 -1.94,2.62 -1.68,6.19 -2.43,9.36 -1.21,5.18 -5.27,9.86 -4.49,15.13 0.27,1.84 1.09,3.92 0,5.42 -1.09,1.5 -3.15,1.36 -4.75,0.72 -4.06,-1.64 -6.3,-5.88 -9.19,-9.17 -2.89,-3.29 -8.1,-5.75 -11.45,-2.93 -2.82,2.37 -2.32,6.73 -2,10.4 0.32,3.67 -0.76,8.39 -4.39,9 -1.45,0.26 -3,-0.27 -4.41,0.06 -4.54,1.06 -4.18,8.93 -8.61,10.36 -1.56,0.5 -3.24,0 -4.83,-0.38 -5.84,-1.38 -12.5,1.55 -17.9,-0.08 -3,-0.91 -4.34,-4.14 -5.15,-7.58 0.76,4.31 1.89,9.18 5.7,10.33 5.4,1.63 12.06,-1.29 17.9,0.08 1.59,0.38 3.27,0.88 4.83,0.38 4.43,-1.43 4.07,-9.3 8.61,-10.36 1.44,-0.33 3,0.2 4.41,-0.06 3.63,-0.64 4.66,-5.36 4.39,-9 -0.27,-3.64 -0.77,-8 2.05,-10.4 3.35,-2.81 8.56,-0.36 11.45,2.93 2.89,3.29 5.13,7.53 9.19,9.17 1.6,0.64 3.72,0.67 4.75,-0.72 1.03,-1.39 0.29,-3.58 0,-5.42 -0.78,-5.27 3.28,-9.95 4.49,-15.13 0.75,-3.17 0.49,-6.74 2.43,-9.36 4.08,-5.52 14.57,-2.74 18,-8.68 a 9.36,9.36 0 0 0 4.53,-0.59 c 1.33,-0.68 2.36,-2.34 1.81,-3.77 z"
       transform="translate(-37.44,-49.53)"
       id="path746"
       inkscape:connector-curvature="0" />
    <path
       d="m 327.8,349.09 c -0.7,-2.79 -1.44,-5.66 -3.21,-7.93 -1.38,-1.78 -3.43,-3.29 -4.42,-5.21 a 5.3,5.3 0 0 0 0,0.69 c 0.13,3 3.15,4.9 5,7.27 1.85,2.37 2.49,5.09 3.18,7.86 -0.19,-0.98 -0.35,-1.89 -0.55,-2.68 z"
       transform="translate(-37.44,-49.53)"
       id="path748"
       inkscape:connector-curvature="0" />
    <path
       d="m 324.19,322.06 c -0.29,-3.71 -2.71,-7.51 -3.85,-11.34 0.34,3.83 2.72,7.62 3.85,11.34 z"
       transform="translate(-37.44,-49.53)"
       id="path750"
       inkscape:connector-curvature="0" />
  </g>
  <path
     d="m 239.35857,399.2931 c 0,0 30.77,-0.92 23.43,2.38 -7.34,3.3 -28.11,3 -28.11,3 z"
     id="path754"
     inkscape:connector-curvature="0"
     style="opacity:0.1" />
  <path
     d="m 365.92857,464.8731 c 0,0 14.31,-2.2 18,0.18 3.69,2.38 -18,-0.18 -18,-0.18 z"
     id="path756"
     inkscape:connector-curvature="0"
     style="opacity:0.1" />
  <polygon
     points="438.86,614.08 475.85,613.97 463.74,633.29 439.89,645.38 "
     id="polygon828"
     style="fill:#e4aab4"
     transform="translate(-239.91143,-215.9569)" />
</svg>
