<?xml version="1.0" encoding="UTF-8" standalone="no"?>
<svg
   xmlns:dc="http://purl.org/dc/elements/1.1/"
   xmlns:cc="http://creativecommons.org/ns#"
   xmlns:rdf="http://www.w3.org/1999/02/22-rdf-syntax-ns#"
   xmlns:svg="http://www.w3.org/2000/svg"
   xmlns="http://www.w3.org/2000/svg"
   xmlns:xlink="http://www.w3.org/1999/xlink"
   xmlns:sodipodi="http://sodipodi.sourceforge.net/DTD/sodipodi-0.dtd"
   xmlns:inkscape="http://www.inkscape.org/namespaces/inkscape"
   id="813c2686-e70f-4fb0-bf6b-a2eb7b1db384"
   data-name="Layer 1"
   width="731.46167"
   height="556.52002"
   viewBox="0 0 731.46164 556.52003"
   version="1.1"
   sodipodi:docname="entretien UX2.svg"
   inkscape:version="0.92.4 (5da689c313, 2019-01-14)">
  <metadata
     id="metadata1125">
    <rdf:RDF>
      <cc:Work
         rdf:about="">
        <dc:format>image/svg+xml</dc:format>
        <dc:type
           rdf:resource="http://purl.org/dc/dcmitype/StillImage" />
        <dc:title>interaction design</dc:title>
      </cc:Work>
    </rdf:RDF>
  </metadata>
  <sodipodi:namedview
     pagecolor="#ffffff"
     bordercolor="#666666"
     borderopacity="1"
     objecttolerance="10"
     gridtolerance="10"
     guidetolerance="10"
     inkscape:pageopacity="0"
     inkscape:pageshadow="2"
     inkscape:window-width="1858"
     inkscape:window-height="1016"
     id="namedview1123"
     showgrid="false"
     inkscape:zoom="0.783645"
     inkscape:cx="611.98978"
     inkscape:cy="462.0528"
     inkscape:window-x="62"
     inkscape:window-y="27"
     inkscape:window-maximized="1"
     inkscape:current-layer="813c2686-e70f-4fb0-bf6b-a2eb7b1db384" />
  <defs
     id="defs10">
    <linearGradient
       id="a631a87a-781e-44c6-95a9-52fd0c67a2fa"
       x1="590.32001"
       y1="444.04999"
       x2="590.32001"
       y2="24.1"
       gradientTransform="matrix(-1,0,0,1,852.2,0)"
       gradientUnits="userSpaceOnUse">
      <stop
         offset="0"
         stop-color="gray"
         stop-opacity="0.25"
         id="stop2" />
      <stop
         offset="0.54"
         stop-color="gray"
         stop-opacity="0.12"
         id="stop4" />
      <stop
         offset="1"
         stop-color="gray"
         stop-opacity="0.1"
         id="stop6" />
    </linearGradient>
    <linearGradient
       id="a15ea5fa-8dd7-4ce2-ac3d-c62a3c4696f0"
       x1="493.29999"
       y1="875.73999"
       x2="493.29999"
       y2="319.35001"
       xlink:href="#a631a87a-781e-44c6-95a9-52fd0c67a2fa"
       gradientTransform="translate(-128.42,-319.38)" />
  </defs>
  <title
     id="title12">interaction design</title>
  <path
     d="m 725.29,464.29 -8,-25.46 c 0,0 -6.7,-18.07 -5.62,-27.76 1.08,-9.69 -2.25,-20.27 -2.25,-20.27 L 716,356.55 c 0,0 0.36,-3.73 0.34,-8.65 0,-8.2 -1.16,-19.7 -6.84,-22.69 -9.08,-4.79 -27.69,-45.28 -31.59,-45.28 -3.9,0 -16.44,-2.61 -16.44,-7 a 2.61,2.61 0 0 0 0,-0.48 c 0,0 0,-0.1 0,-0.15 0,-0.05 -0.06,-0.23 -0.1,-0.35 l -0.06,-0.17 -0.18,-0.4 -0.06,-0.11 a 10.68,10.68 0 0 0 -1.81,-2.37 c 16.94,-3.23 33.8,-6.78 50.54,-10.91 h -0.62 l 0.62,-0.15 a 56.7,56.7 0 0 1 -6.65,-0.46 l -0.49,0.11 c -24.62,-3.36 -46.75,-22.61 -52.77,-47 -6.68,-27 5,-55.18 4.48,-83 A 95.32,95.32 0 0 0 639.26,77.91 c -1.28,-2 -2.64,-3.92 -4.06,-5.8 a 38,38 0 0 0 14.63,-55.82 c -0.43,-0.62 -0.88,-1.22 -1.34,-1.81 a 38.11,38.11 0 0 1 -6.22,47.14 37.77,37.77 0 1 0 -66.53,-35.77 c -0.81,-0.36 -1.62,-0.72 -2.43,-1.05 A 37.76,37.76 0 0 1 606.45,0.07 C 605.7,0.02 604.96,0 604.2,0 a 37.73,37.73 0 0 0 -34.79,23.26 c -11.32,-4.15 -23.13,-5.87 -34.75,-2.92 a 38.2,38.2 0 0 0 -6.3,2.19 l 0.52,-0.41 a 28.11,28.11 0 0 0 -7.87,5 c -3.48,3.21 -5.93,7.37 -8.88,11.09 a 46.84,46.84 0 0 1 -10.55,9.58 c 0.33,-0.16 0.66,-0.35 1,-0.52 -13.4,9.48 -31.61,12.21 -46.93,6.11 -4.3,-1.72 -8.45,-4.07 -13,-4.7 a 19.64,19.64 0 0 0 -10.29,1.5 c 0.14,-0.11 0.27,-0.23 0.42,-0.34 a 26.91,26.91 0 0 0 -10.8,8.1 c -5,6.17 -7.51,14 -9.3,21.71 a 70.71,70.71 0 0 0 -2,16.72 c 0.07,7.22 1.69,14.19 6,19.84 6.68,8.66 15.8,11 25.32,12.56 -0.28,1 -0.55,1.92 -0.79,2.9 a 86,86 0 0 0 59.37,103.66 l 1.85,3.14 0.6,0.14 c 4.43,7.49 9.28,15.9 13.78,24 0.24,0.43 0.47,0.86 0.71,1.28 l -8.51,4.38 v 0 c -2.23,1.15 -7.77,4.16 -10.84,7.12 a 7.21,7.21 0 0 0 -2,2.83 c -1.3,4.36 -8.22,15.68 -13,18.72 -4.78,3.04 -8.66,17.85 -8.22,25.67 0.44,7.82 -2.6,7 -10.39,7.42 -7.79,0.42 0,11.75 0,11.75 l 0.2,0.76 c -0.36,0.62 -0.77,1.29 -1.22,2 -2,3.07 -4.63,6.47 -6.55,6.29 -3.47,-0.33 -5.63,8.16 -5.41,9.46 0.22,1.3 -6.06,11.75 -8.44,12.84 -2.38,1.09 -12.55,3.17 -9.74,12.91 l -12.34,12.56 -10,9.58 c 0,0 -14.28,-8.06 -37.44,17 a 20.69,20.69 0 0 1 7.68,0.72 l -0.66,0.32 c -6.1,2.89 -16.66,7.82 -24.47,11 l -41.59,1.29 v -31 c 0,0 -3.68,-8.7 -8,0 l -1.09,31.32 -90.4,2.93 16.94,-18 v 0 l 0.22,-0.24 a 14.83,14.83 0 0 0 3.33,-14.67 L 164.9,186.68 v 0 l -0.49,-1.56 a 12.16,12.16 0 0 0 -9.95,-8.38 l -98.18,-13.25 -0.68,-0.09 -9.02,2.45 a 8.84,8.84 0 0 0 -6.16,11 c 2.32,8 6.13,21.06 11,37.47 H 37.86 l 10.39,89.68 6.33,34.5 q 2.43,13.2 5.67,26.24 c 5.21,21 15.52,65.79 15.75,91.77 L 0,539.37 v 16.83 h 485.45 a 0.8,0.8 0 0 0 0.08,0.16 h 236.51 c 0,0 -2.59,-4.57 3,-11.1 5.59,-6.53 2.82,-32.43 2.82,-32.43 0,0 -3.14,-4.14 0.7,-13.28 3.84,-9.14 -3.27,-35.26 -3.27,-35.26 z m -603.19,-19.55 -12.9,0.42 -12,-78.06 c 8.89,28.52 17.51,55.66 24.9,77.64 z m 332.18,47.44 -8.37,-17.08 a 9.31,9.31 0 0 0 5.43,-1.45 c 5.41,-3.92 8.65,-13.06 8.65,-13.06 l 14.52,-17.25 1.2,-1.44 c 2.94,8.21 6.4,14.69 9.17,17.82 6.92,7.84 7.79,30.47 9.92,38.74 2.13,8.27 0.47,4.79 0,9.58 a 12.51,12.51 0 0 0 0.29,3.49 c -9.57,-10.27 -23.18,-19.61 -40.81,-19.35 z"
     id="path984"
     inkscape:connector-curvature="0"
     style="fill:url(#a15ea5fa-8dd7-4ce2-ac3d-c62a3c4696f0)" />
  <polygon
     points="518.18,731.56 577.36,851.64 93.83,851.64 93.83,834.98 179.18,742.47 "
     id="polygon986"
     style="fill:#514e7f"
     transform="translate(-88.94,-295.28)" />
  <polygon
     points="518.18,731.56 577.36,851.64 93.83,851.64 93.83,834.98 179.18,742.47 "
     id="polygon988"
     style="opacity:0.2"
     transform="translate(-88.94,-295.28)" />
  <path
     d="m 446.48,531.98 v 3.2 a 6.24,6.24 0 0 1 -6.24,6.24 H 258.02 c -3.45,0 0,-6.89 0,-6.89 l -2.06,-45.13 a 7.45,7.45 0 0 1 5.62,-7.56 c 10.14,-2.56 17.12,1.55 17.12,1.55 l 112.88,-2.87 a 36.19,36.19 0 0 1 7,0.33 30.66,30.66 0 0 1 20.69,12.26 l 25.94,35.17 a 6.24,6.24 0 0 1 1.27,3.7 z"
     id="path990"
     inkscape:connector-curvature="0"
     style="fill:#514e7f" />
  <path
     d="m 446.48,535.18 v 0 a 6.24,6.24 0 0 1 -6.24,6.24 H 258.02 c -3.45,0 0,-6.89 0,-6.89 0,0 10.06,-4.88 25,-4 l 133,-2.88 c 0,0 15.71,0.36 24.9,1.36 a 6.23,6.23 0 0 1 5.56,6.17 z"
     id="path992"
     inkscape:connector-curvature="0"
     style="opacity:0.1" />
  <polygon
     points="372.52,818.32 504.96,816.02 483.7,783.55 369.36,783.55 "
     id="polygon994"
     style="fill:#fbb12c"
     transform="translate(-88.94,-295.28)" />
  <path
     d="m 200.85,512.69 v 12.07 l -119.79,4.86 c 0,0 -27.39,-1.87 -30.75,-18.7 a 15.7,15.7 0 0 1 0.1,-5.3 c 1.21,-7.09 7.29,-19.47 34.09,-25.19 l 33,-3.39 h 73.58 c 0,0 9.5,9.51 9.77,35.65 z"
     id="path996"
     inkscape:connector-curvature="0"
     style="fill:#514e7f" />
  <path
     d="m 200.85,513.07 v 11.69 l -119.79,4.86 c 0,0 -27.39,-1.87 -30.75,-18.7 a 15.7,15.7 0 0 1 0.1,-5.3 c 0,0 16.56,15.66 39,13.36 l 105.44,-4.59 a 59.28,59.28 0 0 0 6,-1.32 z"
     id="path998"
     inkscape:connector-curvature="0"
     style="opacity:0.1" />
  <ellipse
     cx="83.287071"
     cy="499.55453"
     rx="36.830002"
     ry="6.3200002"
     transform="rotate(-2.95)"
     id="ellipse1000"
     style="opacity:0.1" />
  <path
     d="m 120.58,491.62 -19.38,9.58 -20.62,-4.88 -0.1,-33.61 c 1.31,-24.53 -10,-73.63 -15.59,-95.88 q -3.23,-12.9 -5.65,-26 L 52.9,306.68 42.58,217.94 h 24.56 l 14.44,20.68 z"
     id="path1002"
     inkscape:connector-curvature="0"
     style="fill:#514e7f" />
  <path
     d="M 120.58,491.62 101.2,501.2 88.84,429.42 C 89.08,417.19 73.75,359.13 72.75,356.74 60.53,327.57 50.06,217.98 50.06,217.98 h 17.09 l 14.43,20.64 z"
     id="path1004"
     inkscape:connector-curvature="0"
     style="fill:#514e7f" />
  <path
     d="M 120.58,491.62 101.2,501.2 88.84,429.42 C 89.08,417.19 73.75,359.13 72.75,356.74 60.53,327.57 50.06,217.98 50.06,217.98 h 17.09 l 14.43,20.64 z"
     id="path1006"
     inkscape:connector-curvature="0"
     style="opacity:0.15" />
  <path
     d="m 236.11,425.04 -66,69.55 -7.74,0.55 -9.43,0.68 a 10.63,10.63 0 0 1 -10.48,-6.29 c -20,-45 -83.94,-262.59 -97.4,-308.68 a 8.74,8.74 0 0 1 6.13,-10.9 l 9,-2.42 0.67,0.08 96.15,12.9 a 14.65,14.65 0 0 1 12,10.06 l 70.38,219.93 a 14.64,14.64 0 0 1 -3.28,14.54 z"
     id="path1008"
     inkscape:connector-curvature="0"
     style="fill:#514e7f" />
  <path
     d="m 236.11,425.04 -66,69.55 -7.74,0.55 -9.43,0.68 a 10.63,10.63 0 0 1 -10.48,-6.29 c -20,-45 -83.94,-262.59 -97.4,-308.68 a 8.74,8.74 0 0 1 6.13,-10.9 l 9,-2.42 0.67,0.08 96.15,12.9 a 14.65,14.65 0 0 1 12,10.06 l 70.38,219.93 a 14.64,14.64 0 0 1 -3.28,14.54 z"
     id="path1010"
     inkscape:connector-curvature="0"
     style="opacity:0.1" />
  <path
     d="m 235.88,425.28 -65.77,69.34 -7.74,0.55 -98.7,-316 A 30.15,30.15 0 0 1 60.9,167.62 l 97.76,13.12 a 12.08,12.08 0 0 1 9.9,8.3 l 70.77,221.15 a 15.2,15.2 0 0 1 -3.45,15.09 z"
     id="path1012"
     inkscape:connector-curvature="0"
     style="fill:#514e7f" />
  <path
     d="m 231.06,413.62 a 14.66,14.66 0 0 1 -2.66,3.3 l -64.75,60.2 -88.34,-292.79 84.83,8.4 a 14.87,14.87 0 0 1 12.79,10.53 l 59.59,198.43 a 14.93,14.93 0 0 1 -1.46,11.93 z"
     id="path1014"
     inkscape:connector-curvature="0"
     style="fill:#fbb12c" />
  <path
     d="M 231.06,413.62 160.14,192.73 a 14.87,14.87 0 0 1 12.79,10.53 l 59.59,198.43 a 14.93,14.93 0 0 1 -1.46,11.93 z"
     id="path1016"
     inkscape:connector-curvature="0"
     style="opacity:0.1" />
  <circle
     cx="611.33002"
     cy="48.869995"
     r="37.549999"
     id="circle1018"
     style="fill:#945b79" />
  <path
     d="M 573.39,43.3 A 37.55,37.55 0 0 1 608.7,5.81 c -0.74,0 -1.48,-0.07 -2.23,-0.07 a 37.56,37.56 0 1 0 0,75.11 c 0.75,0 1.49,0 2.23,-0.07 A 37.55,37.55 0 0 1 573.39,43.3 Z"
     id="path1020"
     inkscape:connector-curvature="0"
     style="fill:#945b79" />
  <path
     d="m 578.25,48.87 a 37.55,37.55 0 0 1 35.33,-37.48 c -0.74,0 -1.49,-0.07 -2.24,-0.07 a 37.56,37.56 0 0 0 0,75.11 c 0.75,0 1.5,0 2.24,-0.08 A 37.54,37.54 0 0 1 578.25,48.87 Z"
     id="path1022"
     inkscape:connector-curvature="0"
     style="opacity:0.1" />
  <path
     d="m 418.06,469.9 a 101.83,101.83 0 0 1 -10.82,4.93 c -9.66,3.8 -24.38,8.16 -38.09,6.49 -23.05,-2.8 -36.84,4.74 -36.84,4.74 l -5.17,-38.35 c 0,0 17,-5 23.91,-6.25 5.18,-1 23.87,-9.61 32.84,-13.84 3,-1.4 4.87,-2.32 4.87,-2.32 H 406 Z"
     id="path1024"
     inkscape:connector-curvature="0"
     style="fill:#ffc1c7" />
  <path
     d="m 418.06,469.9 a 101.83,101.83 0 0 1 -10.82,4.93 c -1.17,-34.15 -14.27,-44.29 -23.35,-47.21 3,-1.4 4.87,-2.32 4.87,-2.32 H 406 Z"
     id="path1026"
     inkscape:connector-curvature="0"
     style="opacity:0.1" />
  <path
     d="m 481.84,355.28 v 84 l -4.51,5.34 -14.45,17.1 c 0,0 -3.23,9 -8.62,12.92 -5.39,3.92 -17.68,-1.29 -17.68,-1.29 l -3.45,5.6 c 0,0 -7.75,1.51 -11.41,0 -3.66,-1.51 -12.72,4.31 -12.72,4.31 1.3,-61.62 -32.1,-56.66 -32.1,-56.66 23.05,-24.78 37.27,-16.81 37.27,-16.81 l 9.92,-9.48 12.28,-12.44 c -2.8,-9.63 7.32,-11.69 9.69,-12.77 2.37,-1.08 8.62,-11.42 8.41,-12.71 -0.21,-1.29 1.93,-9.7 5.38,-9.37 1.92,0.18 4.55,-3.19 6.53,-6.22 1.58,-2.44 2.74,-4.66 2.74,-4.66 z"
     id="path1028"
     inkscape:connector-curvature="0"
     style="fill:#ff6584" />
  <path
     d="m 511.67,271.31 25.4,-13 -1.44,15.23 5,15.3 c 0,0 -4.59,11.85 -5.16,13.14 -0.57,1.29 -11.49,28.3 -11.49,28.3 l -8.76,-11.06 z"
     id="path1030"
     inkscape:connector-curvature="0"
     style="fill:#ff6584" />
  <polyline
     points="604.17 614.5 600.61 566.59 626.01 553.6"
     id="polyline1032"
     style="opacity:0.1"
     transform="translate(-88.94,-295.28)" />
  <path
     d="m 620.81,257.03 c 0,0 -8.44,12.14 -20,27.61 -26.9,36 -70.66,90 -64,50.82 0.22,-1.28 0.39,-2.56 0.54,-3.85 -1.64,1.1 -5.4,0.14 -9.5,-1.81 l -0.28,-0.13 a 48.9,48.9 0 0 1 -5.84,-3.38 c -0.21,-0.13 -0.41,-0.27 -0.61,-0.41 -4.55,-3.17 -8.19,-6.88 -8,-9.44 3.23,-56.24 16.32,-29.42 20,-23.18 a 4.06,4.06 0 0 0 0.84,1.17 q -0.24,-0.66 -0.54,-1.38 c -2.58,-6.33 -7.51,-15.79 -13.14,-25.9 v -0.1 l -0.75,-1.34 c -4.68,-8.35 -9.75,-17.08 -14.31,-24.74 l -1.23,-2.06 c -7.2,-12.08 -12.8,-21.09 -12.8,-21.09 0,0 32.71,-29.92 60.28,-48.1 23,-15.19 42.48,-22.2 36.25,3.28 -4,16.38 -2.83,30.39 0.86,42 0.13,0.43 0.27,0.86 0.42,1.28 a 67.8,67.8 0 0 0 2.56,6.51 73.94,73.94 0 0 0 4.48,8.5 82.39,82.39 0 0 0 24.77,25.74 z"
     id="path1034"
     inkscape:connector-curvature="0"
     style="fill:#ffc1c7" />
  <path
     d="m 569.96,211.62 c -15.51,16.85 -18.81,33 -43.52,33 a 85,85 0 0 1 -21.31,-2.7 c -7.79,-13.1 -14,-23.15 -14,-23.15 0,0 110.22,-100.79 96.53,-44.82 -4.18,16.91 -21.71,25.77 -17.7,37.67 z"
     id="path1036"
     inkscape:connector-curvature="0"
     style="opacity:0.15" />
  <path
     d="m 611.33,157.06 a 84.9,84.9 0 1 1 -84.89,-84.9 84.52,84.52 0 0 1 84.89,84.9 z"
     id="path1038"
     inkscape:connector-curvature="0"
     style="fill:#ffc1c7" />
  <path
     d="m 524.5,304 c 0,0 1.51,24.13 16.81,22.19 15.3,-1.94 3.66,51.28 3.66,51.28 l -17,15.51 -18.34,5.64 c 0,0 -16.16,-4.74 -15.94,-5.61 0.22,-0.87 6.46,-51.27 6.46,-51.27 l 9.48,-26.94 z"
     id="path1040"
     inkscape:connector-curvature="0"
     style="opacity:0.1" />
  <path
     d="m 524.5,305.72 c 0,0 1.51,24.13 16.81,22.2 15.3,-1.93 3.66,51.28 3.66,51.28 l -17,15.51 -18.32,5.6 c 0,0 -16.16,-4.74 -15.94,-5.6 0.22,-0.86 6.46,-51.28 6.46,-51.28 l 9.48,-26.93 z"
     id="path1042"
     inkscape:connector-curvature="0"
     style="fill:#514e7f" />
  <path
     d="m 481.84,355.28 v 84 l -4.51,5.34 c -4.65,-12.34 -8.19,-29.07 -6,-44.11 2.85,-19.94 -2.83,-45.46 -4.89,-53.73 1.58,-2.44 2.74,-4.66 2.74,-4.66 z"
     id="path1044"
     inkscape:connector-curvature="0"
     style="opacity:0.1" />
  <path
     d="m 526.44,308.31 a 49.27,49.27 0 0 1 -3.65,13.74 c -0.56,1.33 -1.13,2.62 -1.7,3.83 -4.55,-3.17 -8.19,-6.88 -8,-9.44 3.23,-56.24 16.32,-29.42 20,-23.18 -1.8,1.36 -5.82,5.36 -6.65,15.05 z"
     id="path1046"
     inkscape:connector-curvature="0"
     style="opacity:0.1" />
  <path
     d="m 533.37,293.05 c -2.7,-6.63 -8,-16.7 -13.93,-27.34 l 0.75,-0.38 13.72,27.38 a 2.92,2.92 0 0 0 -0.54,0.34 z"
     id="path1048"
     inkscape:connector-curvature="0"
     style="opacity:0.1" />
  <path
     d="m 620.81,257.03 c 0,0 -93.51,134.45 -84,78.43 0.22,-1.28 0.39,-2.56 0.54,-3.85 -1.68,1.12 -5.57,0.1 -9.78,-1.94 0.64,-3.74 1,-6.3 1,-6.3 l 10.35,-29.28 c 0,0 6,-23.27 5.17,-28 l 0.28,-0.19 51.46,-34.55 h 0.05 v 0 a 82.39,82.39 0 0 0 24.93,25.68 z"
     id="path1050"
     inkscape:connector-curvature="0"
     style="opacity:0.1" />
  <path
     d="m 717.77,358.73 -7.33,37.89 -22,159.87 H 497.58 c 0,0 3.44,-28 3.44,-32.32 0,-4.32 -3.87,-10.77 -3.44,-15.51 0.43,-4.74 2.08,-1.3 0,-9.48 -2.08,-8.18 -3,-30.6 -9.87,-38.35 -6.87,-7.75 -18.13,-36.21 -14.7,-60.3 3.43,-24.09 -5.61,-56.45 -5.61,-56.45 0,0 -7.75,-11.21 0,-11.64 7.75,-0.43 10.78,0.39 10.35,-7.34 -0.43,-7.73 3.44,-22.39 8.18,-25.41 4.74,-3.02 11.64,-14.22 12.93,-18.53 a 7.23,7.23 0 0 1 2,-2.81 c 3.88,-3.72 11.77,-7.53 11.77,-7.53 l 7.54,-3.77 v 0.1 l 13.68,27.28 c 0,0 -6.4,3.11 -7.47,15.6 a 49.17,49.17 0 0 1 -3.65,13.74 c -0.36,0.86 -0.72,1.71 -1.09,2.52 -1.1,2.44 -2.22,4.6 -3.17,6.32 v 0 c -1.41,2.55 -2.42,4.12 -2.42,4.12 0,0 -0.37,2.92 -0.93,7 v 0 c -1.15,8.38 -3.09,21.66 -4.24,24.84 -1,2.82 -3,7.67 -4.11,12 -0.7,2.71 -1.1,5.22 -0.73,6.86 0,0.13 0.06,0.26 0.1,0.38 1.29,4 7.75,-13.2 7.75,-13.2 0,0 4.74,-14.65 6.9,-14.65 1.65,0 5.36,-20.68 7,-30.22 0.48,-2.85 0.77,-4.7 0.77,-4.7 l 10.35,-29.29 c 0,0 1.43,-5.53 2.8,-11.75 1.44,-6.54 2.81,-13.83 2.37,-16.26 l 0.28,-0.19 51.46,-34.55 h 0.05 l 0.79,-0.53 h -0.08 c -0.36,0 -1.4,-0.64 -3.39,-5.32 -0.51,-1.19 -1.08,-2.63 -1.71,-4.41 0,0 16.46,-6.61 22.33,-1.77 a 5.23,5.23 0 0 1 1,1.06 4.19,4.19 0 0 1 0.43,0.71 c 3.88,8 5.6,14 9.48,19.18 a 16.68,16.68 0 0 0 1.36,1.57 c 4.69,4.91 14,10.66 12.43,12.22 -1.72,1.72 12.93,9 12.93,9 0,0 8.57,4.9 11.26,9 a 4.1,4.1 0 0 1 0.8,2.18 c 0,4.31 12.5,6.89 16.38,6.89 3.88,0 22.41,40.08 31.45,44.82 9.04,4.74 6.44,31.13 6.44,31.13 z"
     id="path1052"
     inkscape:connector-curvature="0"
     style="fill:#ff6584" />
  <g
     id="g1058"
     style="opacity:0.1"
     transform="translate(-88.94,-295.28)">
    <path
       d="m 652.85,613.81 c 0,0 -6.4,3.11 -7.47,15.6 a 48.85,48.85 0 0 1 -3.66,13.74 87.82,87.82 0 0 1 -4.25,8.84 v 0 c -1.41,2.55 -2.42,4.12 -2.42,4.12 0,0 -0.37,2.92 -0.93,7 v 0 c -1.12,8.45 -3.12,21.73 -4.25,24.89 -1,2.82 -3,7.67 -4.11,12 -0.7,2.71 -1.1,5.22 -0.73,6.86 0,0.13 0.06,0.26 0.1,0.38 1.29,4 7.75,-13.2 7.75,-13.2 0,0 4.74,-14.65 6.9,-14.65 0.61,0 1.51,-2.86 2.48,-6.94 0.49,-3.27 1,-6.54 1.33,-9.28 v 0 c 0.56,-4.1 0.93,-7 0.93,-7 0,0 0.57,-0.88 1.45,-2.4 0.92,-5.27 1.56,-9.25 1.56,-9.25 l 10.35,-29.29 c 0,0 0.75,-2.92 1.69,-6.89 l -11,-21.87 -7.54,3.77 v 0 z"
       transform="translate(-39.48,-24.1)"
       id="path1054"
       inkscape:connector-curvature="0" />
    <path
       d="m 839.72,647.08 c -9,-4.74 -27.57,-44.82 -31.45,-44.82 -3.88,0 -16.38,-2.58 -16.38,-6.89 0,-4.31 -12.06,-11.21 -12.06,-11.21 0,0 -14.65,-7.32 -12.93,-9 1.55,-1.56 -7.74,-7.31 -12.43,-12.22 a 18,18 0 0 1 -1.36,-1.57 c -3.88,-5.18 -5.6,-11.21 -9.48,-19.18 a 4.72,4.72 0 0 0 -0.43,-0.72 5.82,5.82 0 0 0 -1,-1.06 c -2.64,-2.17 -7.4,-2 -11.86,-1.22 a 7.15,7.15 0 0 1 2.38,1.22 5.82,5.82 0 0 1 1,1.06 4.72,4.72 0 0 1 0.43,0.72 c 3.88,8 5.6,14 9.48,19.18 a 18,18 0 0 0 1.37,1.53 c 4.69,4.91 14,10.66 12.43,12.22 -1.72,1.72 12.93,9 12.93,9 0,0 12.06,6.9 12.06,11.21 0,4.31 12.5,6.89 16.38,6.89 3.88,0 22.41,40.08 31.45,44.82 9.04,4.74 6.47,31 6.47,31 l -7.34,37.96 -22,159.87 h 9.48 l 22,-159.87 7.33,-37.92 c 0,0 2.58,-26.26 -6.47,-31 z"
       transform="translate(-39.48,-24.1)"
       id="path1056"
       inkscape:connector-curvature="0" />
  </g>
  <path
     d="m 334.98,448.49 c 0,0 -54.81,-15.86 -58.69,8.49 -3.88,24.35 22.41,38.35 39.21,37.92 16.8,-0.43 24.13,-16.38 24.13,-16.38 z"
     id="path1060"
     inkscape:connector-curvature="0"
     style="fill:#ffc1c7" />
  <path
     d="m 609.82,523.34 c 0,0 -12.28,8.83 -38.35,8.83 -26.07,0 -56.45,5.6 -56.45,5.6 0,0 -38.78,-91.35 -116.56,-13.15 0,0 -14,18.1 58.6,20 0,0 25.64,-0.86 31.24,11.85 h 145 l 19.83,-14.85 z"
     id="path1062"
     inkscape:connector-curvature="0"
     style="fill:#ffc1c7" />
  <path
     d="m 318.09,409.14 c 0,0 -3.66,-8.61 -8,0 l -2.35,66.8 5.16,15.73 5.16,-14 z"
     id="path1064"
     inkscape:connector-curvature="0"
     style="fill:#514e7f" />
  <path
     d="m 614.78,222.06 c -7.52,2.56 -15.77,8.56 -18.2,10.44 -0.45,0 -2,-1 -5.1,-9.73 -0.01,0 18.6,-7.47 23.3,-0.71 z"
     id="path1066"
     inkscape:connector-curvature="0"
     style="opacity:0.1" />
  <path
     d="m 533.91,294.43 c 0,0 -6.4,3.11 -7.47,15.6 a 49.17,49.17 0 0 1 -3.65,13.74 l -4.21,8.85 v 0 l -3.35,11.14 v 0 l 0.35,22.68 -8.76,14.18 -0.73,6.86 -2.27,21.22 -11.64,-5.6 c 0,0 4.8,-34.22 8.4,-41.15 3.6,-6.93 8.41,-43.63 8.41,-43.63 0,0 -0.22,-13.47 1.51,-15.84 1.73,-2.37 -3,-1.94 -3.45,-6.89 -0.26,-2.94 -3.54,-11.1 -6.17,-17.25 3.88,-3.72 11.77,-7.53 11.77,-7.53 l 7.54,-3.77 z"
     id="path1068"
     inkscape:connector-curvature="0"
     style="fill:#ff6584" />
  <path
     d="m 533.91,294.43 c 0,0 -6.4,3.11 -7.47,15.6 a 49.17,49.17 0 0 1 -3.65,13.74 l -4.21,8.85 v 0 l -3.35,11.14 v 0 l 0.35,22.68 -8.76,14.18 -0.73,6.86 -2.27,21.22 -11.64,-5.6 c 0,0 4.8,-34.22 8.4,-41.15 3.6,-6.93 8.41,-43.63 8.41,-43.63 0,0 -0.22,-13.47 1.51,-15.84 1.73,-2.37 -3,-1.94 -3.45,-6.89 -0.26,-2.94 -3.54,-11.1 -6.17,-17.25 3.88,-3.72 11.77,-7.53 11.77,-7.53 l 7.54,-3.77 z"
     id="path1070"
     inkscape:connector-curvature="0"
     style="opacity:0.1" />
  <path
     d="m 626.05,245.25 c -9.61,7.86 -35.45,30.16 -38.42,45.32 -3.66,18.69 -14.65,16.88 -14.65,16.88 -13.73,-29.78 -23.18,-37.08 -28.59,-38.11 l 51.46,-34.56 c 0,0 0,0 0.05,0 l 0.79,-0.53 h -0.11 c -0.36,0 -1.4,-0.63 -3.39,-5.31 l 20.62,-6.19 a 5.23,5.23 0 0 1 1,1.06 4.63,4.63 0 0 1 0.43,0.71 c 3.88,8 5.6,14 9.48,19.18 a 18.09,18.09 0 0 0 1.33,1.55 z"
     id="path1072"
     inkscape:connector-curvature="0"
     style="opacity:0.1" />
  <path
     d="m 626.05,243.52 c -9.61,7.86 -35.45,30.17 -38.42,45.33 -3.66,18.68 -14.65,16.87 -14.65,16.87 -13.73,-29.77 -23.18,-37.1 -28.59,-38.1 l 51.46,-34.55 h 0.05 l 0.79,-0.53 h -0.11 c -0.36,0 -1.4,-0.64 -3.39,-5.32 l 20.62,-6.18 a 5.23,5.23 0 0 1 1,1.06 4.19,4.19 0 0 1 0.43,0.71 c 3.88,8 5.6,14 9.48,19.18 a 16.68,16.68 0 0 0 1.33,1.53 z"
     id="path1074"
     inkscape:connector-curvature="0"
     style="fill:#ff6584" />
  <path
     d="m 567.81,394.49 c 0.64,-0.21 34.22,-19.22 30.36,-4.76 -3.86,14.46 -30.36,4.76 -30.36,4.76 z"
     id="path1076"
     inkscape:connector-curvature="0"
     style="opacity:0.1" />
  <path
     d="m 422.58,412.7 c 0,0 17.66,27.47 23.91,26.61 6.25,-0.86 -23.91,-26.61 -23.91,-26.61 z"
     id="path1078"
     inkscape:connector-curvature="0"
     style="opacity:0.1" />
  <path
     d="m 444.58,402.47 c 0,0 1.08,21.33 10.35,22.83 9.27,1.5 -10.35,-22.83 -10.35,-22.83 z"
     id="path1080"
     inkscape:connector-curvature="0"
     style="opacity:0.1" />
  <path
     d="m 542.58,470.98 c 0,0 21.94,36.5 17.67,49.13 z"
     id="path1082"
     inkscape:connector-curvature="0"
     style="opacity:0.1" />
  <path
     d="m 568.02,475.29 c 0,0 29.68,39 24.54,42.23 -5.14,3.23 -24.54,-42.23 -24.54,-42.23 z"
     id="path1084"
     inkscape:connector-curvature="0"
     style="opacity:0.1" />
  <path
     d="m 501.29,412.7 c 0,0 -3.05,27.73 8.4,35.79 z"
     id="path1086"
     inkscape:connector-curvature="0"
     style="opacity:0.1" />
  <path
     d="m 634.39,289.35 c 0,0 -50.81,39.43 -42.67,80.37 8.14,40.94 16,43.95 16,43.95 0,0 3,16.37 8.62,23.27 5.62,6.9 4.74,11.42 4.74,11.42 0,0 5.17,-2.37 6.89,9.48 1.72,11.85 10.77,20.25 10.77,20.25 0,0 3,9.48 -4.74,14.65 -7.74,5.17 -6,10.78 -6,10.78 l -31.46,18.31 35.04,34.69 h 90.5 c 0,0 -2.59,-4.52 3,-11 5.59,-6.48 2.81,-32.1 2.81,-32.1 0,0 -3.13,-4.1 0.7,-13.15 3.83,-9.05 -3.29,-34.9 -3.29,-34.9 l -8,-25.21 c 0,0 -6.68,-17.88 -5.6,-27.47 1.08,-9.59 -2.2,-20.07 -2.2,-20.07 l -17.37,-54.8 c 0,0 0.86,-54.72 -57.74,-48.47 z"
     id="path1088"
     inkscape:connector-curvature="0"
     style="opacity:0.1" />
  <path
     d="m 636.11,289.35 c 0,0 -50.85,39.43 -42.66,80.37 8.19,40.94 15.94,43.95 15.94,43.95 0,0 3,16.37 8.62,23.27 5.62,6.9 4.74,11.42 4.74,11.42 0,0 5.17,-2.37 6.9,9.48 1.73,11.85 10.77,20.25 10.77,20.25 0,0 3,9.48 -4.74,14.65 -7.74,5.17 -6,10.78 -6,10.78 l -31.46,18.31 35.12,34.69 h 90.49 c 0,0 -2.58,-4.52 3,-11 5.58,-6.48 2.8,-32.1 2.8,-32.1 0,0 -3.13,-4.1 0.7,-13.15 3.83,-9.05 -3.29,-34.9 -3.29,-34.9 l -8,-25.21 c 0,0 -6.68,-17.88 -5.6,-27.47 1.08,-9.59 -2.22,-20.07 -2.22,-20.07 l -17.37,-54.8 c 0,0 0.86,-54.72 -57.74,-48.47 z"
     id="path1090"
     inkscape:connector-curvature="0"
     style="fill:#ff6584" />
  <path
     d="m 653.13,317.14 c 0,0 36.2,12.28 45.89,18.32 9.69,6.04 -14.22,-23.92 -45.89,-18.32 z"
     id="path1092"
     inkscape:connector-curvature="0"
     style="opacity:0.1" />
  <path
     d="m 672.09,503.52 c 0,0 51.49,6.46 48.49,16.59 -3,10.13 -48.49,-16.59 -48.49,-16.59 z"
     id="path1094"
     inkscape:connector-curvature="0"
     style="opacity:0.1" />
  <path
     d="m 662,514.5 c 0,0 37.67,12.07 31,22 -6.67,9.93 -31,-22 -31,-22 z"
     id="path1096"
     inkscape:connector-curvature="0"
     style="opacity:0.1" />
  <path
     d="m 662.67,273.81 c -20.55,4 -41.2,7.42 -61.86,10.83 l -5.38,0.89 c -11.36,1.87 -22.79,3.75 -34.31,3.69 -5.61,0 -11.39,-0.58 -16.37,-3.18 a 18,18 0 0 1 -3,-2 c -3.49,-2.8 -6,-6.87 -5.94,-11.29 0.06,-8.06 7.71,-13.65 14.29,-18.31 9.63,-6.83 19.14,-15.5 22.86,-26.39 a 30.07,30.07 0 0 0 1.45,-6.3 c 1.1,-9.25 -2.27,-18.38 -5.86,-27 -3.92,-9.35 -9.3,-19.4 -17.16,-25.08 a 23.58,23.58 0 0 0 -10.81,-4.37 c -12.08,-1.6 -23.51,7 -35.68,6.52 -9.89,-0.43 -18.29,-6.78 -24.24,-14.25 -4.33,-5.44 -7.07,-12.72 -13.59,-15.95 -7.06,-3.51 -15.09,-4.34 -22.94,-5.51 a 84.9,84.9 0 1 1 144.34,78.87 c 0.13,0.43 0.27,0.86 0.42,1.28 a 67.8,67.8 0 0 0 2.56,6.51 c 0,0 16.46,-6.61 22.33,-1.77 a 5.23,5.23 0 0 1 1,1.06 4.19,4.19 0 0 1 0.43,0.71 c 3.88,8 5.6,14 9.48,19.18 a 16.68,16.68 0 0 0 1.36,1.57 c 4.69,4.91 14,10.66 12.43,12.22 -1.72,1.72 12.93,9 12.93,9 0,0 8.57,4.95 11.26,9.07 z"
     id="path1098"
     inkscape:connector-curvature="0"
     style="opacity:0.1" />
  <path
     d="m 419.73,120.81 c -7.66,-9.88 -6.83,-23.84 -4,-36 1.78,-7.67 4.31,-15.38 9.27,-21.49 4.96,-6.11 12.77,-10.39 20.58,-9.33 4.57,0.62 8.7,2.95 13,4.65 19.3,7.64 43.24,1.29 56.22,-14.92 2.94,-3.67 5.37,-7.79 8.85,-11 a 31.42,31.42 0 0 1 13.58,-6.85 c 21.72,-5.48 44.12,5.31 62.7,17.82 15.86,10.68 30.94,23.15 41.35,39.18 a 93.88,93.88 0 0 1 15,49.07 c 0.53,27.6 -11.11,55.44 -4.45,82.22 6.57,26.45 32.4,46.81 59.65,47 -37.42,9.18 -75.48,15.47 -113.49,21.74 -11.37,1.88 -22.79,3.76 -34.31,3.69 -5.61,0 -11.4,-0.58 -16.37,-3.18 -4.97,-2.6 -9,-7.65 -9,-13.26 0.06,-8.07 7.72,-13.65 14.29,-18.31 11.42,-8.1 22.67,-18.79 24.32,-32.69 1.1,-9.25 -2.27,-18.39 -5.87,-27 -5.49,-13.1 -13.86,-27.61 -27.94,-29.49 -12.07,-1.61 -23.51,7 -35.68,6.51 -9.88,-0.43 -18.29,-6.78 -24.24,-14.25 -4.33,-5.44 -7.07,-12.72 -13.58,-15.95 -16.09,-7.96 -37.32,-1.97 -49.88,-18.16 z"
     id="path1100"
     inkscape:connector-curvature="0"
     style="fill:#945b79" />
  <path
     d="m 639.81,70.47 a 37.55,37.55 0 0 0 10.66,-50.38 c 0.46,0.58 0.9,1.18 1.33,1.79 A 37.56,37.56 0 1 1 590.09,64.7 c -0.42,-0.62 -0.83,-1.25 -1.21,-1.88 a 37.55,37.55 0 0 0 50.93,7.65 z"
     id="path1102"
     inkscape:connector-curvature="0"
     style="fill:#945b79" />
  <g
     id="g1108"
     style="opacity:0.1"
     transform="translate(-88.94,-295.28)">
    <path
       d="m 649.24,359.47 c 2.94,-3.68 5.37,-7.8 8.85,-11 a 22.51,22.51 0 0 1 1.79,-1.47 27.66,27.66 0 0 0 -7.82,4.91 c -3.48,3.18 -5.91,7.3 -8.85,11 a 46.21,46.21 0 0 1 -10.49,9.54 47.46,47.46 0 0 0 16.52,-12.98 z"
       transform="translate(-39.48,-24.1)"
       id="path1104"
       inkscape:connector-curvature="0" />
    <path
       d="m 732.47,598.71 c -11.36,1.87 -22.79,3.75 -34.31,3.68 -5.61,0 -11.39,-0.57 -16.37,-3.17 -4.98,-2.6 -9,-7.65 -8.95,-13.27 0.06,-8.06 7.71,-13.64 14.29,-18.31 11.42,-8.1 22.66,-18.79 24.31,-32.69 1.1,-9.24 -2.27,-18.39 -5.87,-27 -5.49,-13.1 -13.85,-27.62 -27.94,-29.49 -12.07,-1.61 -23.5,7 -35.67,6.5 -9.88,-0.42 -18.29,-6.77 -24.24,-14.24 -4.34,-5.44 -7.08,-12.72 -13.59,-15.95 -16.16,-8 -37.39,-2 -50,-18.22 -7.66,-9.88 -6.82,-23.85 -4,-36 1.78,-7.67 4.31,-15.38 9.26,-21.5 a 28,28 0 0 1 4.72,-4.57 26.84,26.84 0 0 0 -10.75,8 c -5,6.11 -7.49,13.83 -9.27,21.49 -2.83,12.18 -3.66,26.15 4,36 12.56,16.19 33.79,10.2 50,18.22 6.51,3.24 9.25,10.52 13.58,16 6,7.46 14.36,13.82 24.24,14.24 12.17,0.52 23.61,-8.12 35.68,-6.51 14.08,1.88 22.45,16.39 27.94,29.5 3.6,8.58 7,17.72 5.87,27 -1.65,13.9 -12.9,24.59 -24.32,32.69 -6.57,4.66 -14.23,10.25 -14.29,18.31 0,5.61 4,10.67 9,13.27 5,2.6 10.76,3.14 16.37,3.17 11.52,0.07 23,-1.81 34.31,-3.69 38,-6.27 76.07,-12.55 113.49,-21.74 a 56.19,56.19 0 0 1 -6.62,-0.46 c -33.34,7.59 -67.13,13.17 -100.87,18.74 z"
       transform="translate(-39.48,-24.1)"
       id="path1106"
       inkscape:connector-curvature="0" />
  </g>
  <ellipse
     cx="321.78"
     cy="460.19998"
     rx="16.4"
     ry="8.96"
     id="ellipse1110"
     style="fill:#ffc1c7" />
</svg>
